     Reading input from eqe-scf_0.in

     Current dimensions of program PWSCF are:
     Max number of different atomic species (ntypx) = 10
     Max number of k-points (npk) =  40000
     Max angular momentum in pseudopotentials (lmaxx) =  3

     Subspace diagonalization in iterative solution of the eigenvalue problem:
     a serial algorithm will be used


   Info: using nr1, nr2, nr3 values from input

     Parallelization info
     --------------------
     sticks:   dense  smooth     PW     G-vecs:    dense   smooth      PW
     Min         641     214     53               101481    19512    2438
     Max         642     215     55               101486    19550    2444
     Sum       38503   12843   3219              6089023  1171911  146419


     Parallelization info Large
     --------------------
     sticks:   dense     G-vecs:    dense
     Min         641               101481
     Max         642               101486
     Sum       38503              6089023

 ref_atm           1
  0.26188739133141925       0.28833648113893495        0.0000000000000000     
        -112        -120        -120


     bravais-lattice index     =            0
     lattice parameter (alat)  =      31.0000  a.u.
     unit-cell volume          =   34287.3905 (a.u.)^3
     number of atoms/cell      =           12
     number of atomic types    =            2


     Large bravais-lattice index     =            8
     Large lattice parameter (alat)  =      31.0000  a.u.
     Large unit-cell volume          =   34287.3905 (a.u.)^3
     number of electrons       =        30.00
     number of Kohn-Sham states=           15
     kinetic-energy cutoff     =      40.0000  Ry
     charge density cutoff     =     480.0000  Ry
     convergence threshold     =      1.0E-08
     mixing beta               =       0.3000
     number of iterations used =            8  plain     mixing
     Exchange-correlation      = SLA  PW   PBE  PBE ( 1  4  3  4 0)

     ===== FROZEN DENSITY EMBEDDING METHOD ======================
     Number of fragments  :   1
     Total number of atoms:  12
     Current fragment     :   1
     Initial FDE Density  : Atomic
     Kinetic energy funct.: LC94      
     Fragment Charge      :  0.00
     Total    Charge      :  0.00
     Fragment Spin        : Closed Shell
     Total    Spin        : Closed Shell
     Fragment #   1:
         1           C   tau(   1) = (   0.0000000   0.0852341   0.0000000  )
         2           C   tau(   2) = (   0.0738149   0.0426170   0.0000000  )
         3           C   tau(   3) = (   0.0738149  -0.0426170   0.0000000  )
         4           C   tau(   4) = (   0.0000000  -0.0852341   0.0000000  )
         5           C   tau(   5) = (  -0.0738149  -0.0426170   0.0000000  )
         6           C   tau(   6) = (  -0.0738149   0.0426170   0.0000000  )
         7           H   tau(   7) = (   0.0000000   0.1512008   0.0000000  )
         8           H   tau(   8) = (   0.1309437   0.0756004   0.0000000  )
         9           H   tau(   9) = (   0.1309437  -0.0756004   0.0000000  )
        10           H   tau(  10) = (   0.0000000  -0.1512008   0.0000000  )
        11           H   tau(  11) = (  -0.1309437  -0.0756004   0.0000000  )
        12           H   tau(  12) = (  -0.1309437   0.0756004   0.0000000  )
     ===== FROZEN DENSITY EMBEDDING METHOD ======================


     celldm(1)=  31.000000  celldm(2)=   0.000000  celldm(3)=   0.000000
     celldm(4)=   0.000000  celldm(5)=   0.000000  celldm(6)=   0.000000

     crystal axes: (cart. coord. in units of alat)
               a(1) = (   1.000000   0.000000   0.000000 )  
               a(2) = (   0.000000   1.048780   0.000000 )  
               a(3) = (   0.000000   0.000000   1.097400 )  

     reciprocal axes: (cart. coord. in units 2 pi/alat)
               b(1) = (  1.000000  0.000000  0.000000 )  
               b(2) = (  0.000000  0.953489  0.000000 )  
               b(3) = (  0.000000  0.000000  0.911245 )  

     Large crystal axes: (cart. coord. in units of alat)
               a(1) = (   1.000000   0.000000   0.000000 )  
               a(2) = (   0.000000   1.048780   0.000000 )  
               a(3) = (   0.000000   0.000000   1.097400 )  

     Large reciprocal axes: (cart. coord. in units 2 pi/alat)
               b(1) = (  1.000000  0.000000  0.000000 )  
               b(2) = (  0.000000  0.953489  0.000000 )  
               b(3) = (  0.000000  0.000000  0.911245 )  


     PseudoPot. # 1 for C  read from file:
     /home/ak1201/PSEUDO/c_pbe_v1.2.uspp.F.UPF
     MD5 check sum: d1aef80898a10debaa0f26306b886e00
     Pseudo is Ultrasoft + core correction, Zval =  4.0
     Generated by new atomic code, or converted to UPF format
     Using radial grid of  721 points,  4 beta functions with: 
                l(1) =   0
                l(2) =   0
                l(3) =   1
                l(4) =   1
     Q(r) pseudized with  8 coefficients,  rinner =    1.100   1.100   1.100


     PseudoPot. # 2 for H  read from file:
     /home/ak1201/PSEUDO/h_pbe_v1.uspp.F.UPF
     MD5 check sum: 3408e3ff4ec8b0a4e358431e7e038a48
     Pseudo is Ultrasoft, Zval =  1.0
     Generated by new atomic code, or converted to UPF format
     Using radial grid of  615 points,  2 beta functions with: 
                l(1) =   0
                l(2) =   0
     Q(r) pseudized with  8 coefficients,  rinner =    0.700

     atomic species   valence    mass     pseudopotential
        C              4.00    12.01110     C ( 1.00)
        H              1.00     1.00782     H ( 1.00)

     No symmetry found



   Cartesian axes

     site n.     atom                  positions (alat units)
         1           C   tau(   1) = (   0.0000000   0.0852341   0.0000000  )
         2           C   tau(   2) = (   0.0738149   0.0426170   0.0000000  )
         3           C   tau(   3) = (   0.0738149  -0.0426170   0.0000000  )
         4           C   tau(   4) = (   0.0000000  -0.0852341   0.0000000  )
         5           C   tau(   5) = (  -0.0738149  -0.0426170   0.0000000  )
         6           C   tau(   6) = (  -0.0738149   0.0426170   0.0000000  )
         7           H   tau(   7) = (   0.0000000   0.1512008   0.0000000  )
         8           H   tau(   8) = (   0.1309437   0.0756004   0.0000000  )
         9           H   tau(   9) = (   0.1309437  -0.0756004   0.0000000  )
        10           H   tau(  10) = (   0.0000000  -0.1512008   0.0000000  )
        11           H   tau(  11) = (  -0.1309437  -0.0756004   0.0000000  )
        12           H   tau(  12) = (  -0.1309437   0.0756004   0.0000000  )

     number of k points=     1
                       cart. coord. in units 2pi/alat
        k(    1) = (   0.0000000   0.0000000   0.0000000), wk =   2.0000000

     Dense  grid:  6089023 G-vectors     FFT dimensions: ( 225, 240, 240)

     Smooth grid:  1171911 G-vectors     FFT dimensions: ( 125, 135, 144)

     Large  grid:  6089023 G-vectors     FFT dimensions: ( 225, 240, 240)

     Largest allocated arrays     est. size (Mb)     dimensions
        Kohn-Sham Wavefunctions         0.56 Mb     (    2439,   15)
        NL pseudopotentials             2.23 Mb     (    2439,   60)
        Each V/rho on FFT grid          3.30 Mb     (  216000)
        Each V/rho on Large FFT grid       3.30 Mb     (  216000)
        Each G-vector array             0.77 Mb     (  101484)
        G-vector shells                 0.38 Mb     (   50104)
        Each G-vector array (Large)       0.77 Mb     (  101484)
        G-vector shells (Large)           0.39 Mb     (   50547)
     Largest temporary arrays     est. size (Mb)     dimensions
        Each subspace H/S matrix        0.00 Mb     (      15,   15)
        Each <psi_i|beta_j> matrix      0.01 Mb     (      60,   15)
        Arrays for rho mixing          26.37 Mb     (  216000,    8)

     Initial potential from superposition of free atoms
     Check: negative starting charge=   -0.003952

     starting charge   29.99970, renormalised to   30.00000
 Creating Nonlocal Kinetic Energy Kernels
  LC94 is a (semi)LOCAL NAKE
 Done Creating reduced_cell Kernel
  LC94 is a (semi)LOCAL NAKE
 Done Creating native_cell Kernel

     negative rho (up, down):  3.952E-03 0.000E+00
     Starting wfc are   30 randomized atomic wfcs

     total cpu time spent up to now is       16.5 secs

     per-process dynamical memory:   205.6 Mb

     Self-consistent Calculation

     iteration #  1     ecut=    40.00 Ry     beta=0.30
     CG style diagonalization
     ethr =  1.00E-02,  avg # of iterations =  3.0

     negative rho (up, down):  3.742E-03 0.000E+00

     total cpu time spent up to now is       19.8 secs

     max. frag. est. scf acc.  =       1.47220260 Ry

     frag. estimated scf acc.  <       1.47220260 Ry
     total Hartree energy      =     175.17444521

     iteration #  2     ecut=    40.00 Ry     beta=0.30
     CG style diagonalization
     ethr =  4.91E-03,  avg # of iterations =  3.0

     negative rho (up, down):  6.698E-03 0.000E+00

     total cpu time spent up to now is       23.0 secs

     max. frag. est. scf acc.  =       1.21497122 Ry

     frag. estimated scf acc.  <       1.21497122 Ry
     total Hartree energy      =     187.10071868

     iteration #  3     ecut=    40.00 Ry     beta=0.30
     CG style diagonalization
     ethr =  4.05E-03,  avg # of iterations =  4.0

     negative rho (up, down):  6.728E-03 0.000E+00

     total cpu time spent up to now is       26.3 secs

     max. frag. est. scf acc.  =       0.27218747 Ry

     frag. estimated scf acc.  <       0.27218747 Ry
     total Hartree energy      =     188.47066518

     iteration #  4     ecut=    40.00 Ry     beta=0.30
     CG style diagonalization
     ethr =  9.07E-04,  avg # of iterations =  3.0

     negative rho (up, down):  6.000E-03 0.000E+00

     total cpu time spent up to now is       29.6 secs

     max. frag. est. scf acc.  =       0.37609281 Ry

     frag. estimated scf acc.  <       0.37609281 Ry
     total Hartree energy      =     187.59766094

     iteration #  5     ecut=    40.00 Ry     beta=0.30
     CG style diagonalization
     ethr =  9.07E-04,  avg # of iterations =  3.0

     negative rho (up, down):  9.279E-03 0.000E+00

     total cpu time spent up to now is       32.8 secs

     max. frag. est. scf acc.  =       0.29490661 Ry

     frag. estimated scf acc.  <       0.29490661 Ry
     total Hartree energy      =     184.52647799

     iteration #  6     ecut=    40.00 Ry     beta=0.30
     CG style diagonalization
     ethr =  9.07E-04,  avg # of iterations =  3.8

     negative rho (up, down):  6.942E-03 0.000E+00

     total cpu time spent up to now is       36.1 secs

     max. frag. est. scf acc.  =       0.03102917 Ry

     frag. estimated scf acc.  <       0.03102917 Ry
     total Hartree energy      =     186.50335842

     iteration #  7     ecut=    40.00 Ry     beta=0.30
     CG style diagonalization
     ethr =  1.03E-04,  avg # of iterations =  4.0

     negative rho (up, down):  7.579E-03 0.000E+00

     total cpu time spent up to now is       39.5 secs

     max. frag. est. scf acc.  =       0.04855618 Ry

     frag. estimated scf acc.  <       0.04855618 Ry
     total Hartree energy      =     184.77537554

     iteration #  8     ecut=    40.00 Ry     beta=0.30
     CG style diagonalization
     ethr =  1.03E-04,  avg # of iterations =  3.8

     negative rho (up, down):  7.128E-03 0.000E+00

     total cpu time spent up to now is       42.8 secs

     max. frag. est. scf acc.  =       0.01125951 Ry

     frag. estimated scf acc.  <       0.01125951 Ry
     total Hartree energy      =     185.10274957

     iteration #  9     ecut=    40.00 Ry     beta=0.30
     CG style diagonalization
     ethr =  3.75E-05,  avg # of iterations =  3.6

     negative rho (up, down):  6.644E-03 0.000E+00

     total cpu time spent up to now is       46.1 secs

     max. frag. est. scf acc.  =       0.00169733 Ry

     frag. estimated scf acc.  <       0.00169733 Ry
     total Hartree energy      =     185.02327959

     iteration # 10     ecut=    40.00 Ry     beta=0.30
     CG style diagonalization
     ethr =  5.66E-06,  avg # of iterations =  3.0

     negative rho (up, down):  6.227E-03 0.000E+00

     total cpu time spent up to now is       49.3 secs

     max. frag. est. scf acc.  =       0.00231519 Ry

     frag. estimated scf acc.  <       0.00231519 Ry
     total Hartree energy      =     185.12860727

     iteration # 11     ecut=    40.00 Ry     beta=0.30
     CG style diagonalization
     ethr =  5.66E-06,  avg # of iterations =  3.0

     negative rho (up, down):  5.868E-03 0.000E+00

     total cpu time spent up to now is       52.5 secs

     max. frag. est. scf acc.  =       0.00113182 Ry

     frag. estimated scf acc.  <       0.00113182 Ry
     total Hartree energy      =     185.32650463

     iteration # 12     ecut=    40.00 Ry     beta=0.30
     CG style diagonalization
     ethr =  3.77E-06,  avg # of iterations =  3.7

     negative rho (up, down):  4.657E-03 0.000E+00

     total cpu time spent up to now is       55.8 secs

     max. frag. est. scf acc.  =       0.00001262 Ry

     frag. estimated scf acc.  <       0.00001262 Ry
     total Hartree energy      =     185.33476940

     iteration # 13     ecut=    40.00 Ry     beta=0.30
     CG style diagonalization
     ethr =  4.21E-08,  avg # of iterations =  3.7

     negative rho (up, down):  3.901E-03 0.000E+00

     total cpu time spent up to now is       59.2 secs

     max. frag. est. scf acc.  =       0.00001376 Ry

     frag. estimated scf acc.  <       0.00001376 Ry
     total Hartree energy      =     185.33764362

     iteration # 14     ecut=    40.00 Ry     beta=0.30
     CG style diagonalization
     ethr =  4.21E-08,  avg # of iterations =  3.0

     negative rho (up, down):  3.475E-03 0.000E+00

     total cpu time spent up to now is       62.4 secs

     max. frag. est. scf acc.  =       0.00001433 Ry

     frag. estimated scf acc.  <       0.00001433 Ry
     total Hartree energy      =     185.31801956

     iteration # 15     ecut=    40.00 Ry     beta=0.30
     CG style diagonalization
     ethr =  4.21E-08,  avg # of iterations =  3.5

     negative rho (up, down):  3.215E-03 0.000E+00

     total cpu time spent up to now is       65.6 secs

     max. frag. est. scf acc.  =       0.00000254 Ry

     frag. estimated scf acc.  <       0.00000254 Ry
     total Hartree energy      =     185.30219823

     iteration # 16     ecut=    40.00 Ry     beta=0.30
     CG style diagonalization
     ethr =  8.46E-09,  avg # of iterations =  4.0

     negative rho (up, down):  3.139E-03 0.000E+00

     total cpu time spent up to now is       69.0 secs

     max. frag. est. scf acc.  =       0.00000128 Ry

     frag. estimated scf acc.  <       0.00000128 Ry
     total Hartree energy      =     185.30696537

     iteration # 17     ecut=    40.00 Ry     beta=0.30
     CG style diagonalization
     ethr =  4.28E-09,  avg # of iterations =  3.5

     negative rho (up, down):  3.121E-03 0.000E+00

     total cpu time spent up to now is       72.3 secs

     max. frag. est. scf acc.  =       0.00000028 Ry

     frag. estimated scf acc.  <       0.00000028 Ry
     total Hartree energy      =     185.30651573

     iteration # 18     ecut=    40.00 Ry     beta=0.30
     CG style diagonalization
     ethr =  9.24E-10,  avg # of iterations =  3.0

     negative rho (up, down):  3.131E-03 0.000E+00

     total cpu time spent up to now is       75.5 secs

     max. frag. est. scf acc.  =       0.00000013 Ry

     frag. estimated scf acc.  <       0.00000013 Ry
     total Hartree energy      =     185.30672859

     iteration # 19     ecut=    40.00 Ry     beta=0.30
     CG style diagonalization
     ethr =  4.43E-10,  avg # of iterations =  3.0

     negative rho (up, down):  3.151E-03 0.000E+00

     total cpu time spent up to now is       78.7 secs

     max. frag. est. scf acc.  =       0.00000005 Ry

     frag. estimated scf acc.  <       0.00000005 Ry
     total Hartree energy      =     185.30518212

     iteration # 20     ecut=    40.00 Ry     beta=0.30
     CG style diagonalization
     ethr =  1.70E-10,  avg # of iterations =  3.1

     negative rho (up, down):  3.222E-03 0.000E+00

     total cpu time spent up to now is       82.1 secs

     End of self-consistent calculation

          k = 0.0000 0.0000 0.0000 (146419 PWs)   bands (ev):

   -21.0474 -18.2875 -18.2875 -14.6955 -14.6955 -12.7702 -11.1024 -10.7451
   -10.0992 -10.0992  -8.9299  -8.1075  -8.1075  -6.2130  -6.2129

     highest occupied level (ev):    -6.2129

     max. frag. est. scf acc.  =          0.3E-08 Ry

     frag. estimated scf acc.  <          0.3E-08 Ry

     The total energy is the sum of the following terms:

     one-electron contribution =    -364.15026992 Ry
     hartree contribution      =     185.30456399 Ry
     xc contribution           =     -25.91310375 Ry
     ewald contribution        =     128.80178124 Ry

     FDE: sum of frag energies =     -75.95702843 Ry
     FDE: ewald double counting=      -0.00000000 Ry
     FDE: non additive kinetic =       0.00000000 Ry
     FDE: non additive E_XC    =      -0.00000000 Ry
     FDE: total energy         =     -75.95702843 Ry

     convergence has been achieved in  20 iterations

     Forces acting on atoms (Ry/au):


     negative rho (up, down):  3.222E-03 0.000E+00
     atom    1 type  1   force =    -0.00000007   -0.01624038    0.00000006
     atom    2 type  1   force =    -0.01406630   -0.00812129   -0.00000001
     atom    3 type  1   force =    -0.01406631    0.00812213   -0.00000004
     atom    4 type  1   force =    -0.00000004    0.01623962    0.00000001
     atom    5 type  1   force =     0.01406606    0.00812242   -0.00000001
     atom    6 type  1   force =     0.01406616   -0.00812160    0.00000005
     atom    7 type  2   force =     0.00000004    0.01452667    0.00000000
     atom    8 type  2   force =     0.01257946    0.00726340   -0.00000002
     atom    9 type  2   force =     0.01258123   -0.00726417   -0.00000002
     atom   10 type  2   force =     0.00000006   -0.01452594   -0.00000001
     atom   11 type  2   force =    -0.01258114   -0.00726413   -0.00000001
     atom   12 type  2   force =    -0.01257915    0.00726326    0.00000000

     Total force =     0.053375     Total SCF correction =     0.000099

     Writing output data file fde.save

     init_run     :     15.82s CPU     16.43s WALL (       1 calls)
     electrons    :     60.70s CPU     66.94s WALL (       1 calls)
     forces       :      5.71s CPU      5.84s WALL (       1 calls)

     Called by init_run:
     wfcinit      :      0.26s CPU      0.27s WALL (       1 calls)
     potinit      :      2.95s CPU      3.22s WALL (       1 calls)

     Called by electrons:
     c_bands      :      9.70s CPU      9.73s WALL (      20 calls)
     sum_band     :     11.78s CPU     11.80s WALL (      20 calls)
     v_of_rho     :     25.49s CPU     29.59s WALL (      21 calls)
     newd         :     11.30s CPU     11.31s WALL (      21 calls)
     mix_rho      :      1.42s CPU      1.43s WALL (      20 calls)

     Called by c_bands:
     init_us_2    :      0.07s CPU      0.07s WALL (      41 calls)
     ccgdiagg     :      7.31s CPU      7.33s WALL (      20 calls)
     wfcrot       :      2.60s CPU      2.63s WALL (      20 calls)

     Called by *cgdiagg:
     h_psi        :      9.03s CPU      9.06s WALL (     750 calls)
     s_psi        :      0.28s CPU      0.26s WALL (    1480 calls)
     cdiaghg      :      0.00s CPU      0.01s WALL (      20 calls)

     Called by h_psi:
     add_vuspsi   :      0.26s CPU      0.25s WALL (     750 calls)

     General routines
     calbec       :      1.37s CPU      1.36s WALL (    1501 calls)
     fft          :      9.51s CPU      9.55s WALL (     330 calls)
     ffts         :      0.30s CPU      0.30s WALL (      41 calls)
     fftw         :      7.26s CPU      7.28s WALL (    2390 calls)
     interpolate  :      1.45s CPU      1.46s WALL (      41 calls)
     davcio       :      0.00s CPU      0.00s WALL (       1 calls)

     Parallel routines
     fft_scatter  :     18.74s CPU     18.82s WALL (    3115 calls)

     PWSCF        :     82.76s CPU     90.93s WALL (       1 calls)

   This run was terminated on:  14:29:33  14Aug2017            

=------------------------------------------------------------------------------=
   JOB DONE.
=------------------------------------------------------------------------------=
