 
     ***** This is TDDFT svn revision 
 
Using fancy parallelization, CAUTION: only works with coupled=.true. for all fragments, fragment and interaction energies not available.
 Applying uniform electric field
 Applying field through a shift of wavefunction
 Integrating using Cranck-Nicolson first order
 colors           1

   Info: using nr1, nr2, nr3 values from input

   Info: using nr1s, nr2s, nr3s values from input

   Info: using nr1l, nr2l, nr3l values from input

   Info: using nr1, nr2, nr3 values from input

   Info: using nr1s, nr2s, nr3s values from input

     IMPORTANT: XC functional enforced from input :
     Exchange-correlation      = SLA  PW   PBE  PBE ( 1  4  3  4 0)
     Any further DFT definition will be discarded
     Please, verify this is what you really want

 
     Parallelization info
     --------------------
     sticks:   dense  smooth     PW     G-vecs:    dense   smooth      PW
     Min         641     214     53               101481    19512    2438
     Max         642     215     55               101486    19550    2444
     Sum       38503   12843   3219              6089023  1171911  146419
 
 
     Parallelization info Large
     --------------------
     sticks:   dense     G-vecs:    dense
     Min         641               101481
     Max         642               101486
     Sum       38503              6089023
 
 
     ===== FROZEN DENSITY EMBEDDING METHOD ======================
     Number of fragments  :   1
     Total number of atoms:  12
     Current fragment     :   1
     Initial FDE Density  : Atomic
     Kinetic energy funct.: LC94      
     Fragment Charge      :  0.00
     Total    Charge      :  0.00
     Fragment Spin        : Closed Shell
     Total    Spin        : Closed Shell
     Fragment #   1:
         1           C   tau(   1) = (   0.0000000   0.0852341   0.0000000  )
         2           C   tau(   2) = (   0.0738149   0.0426170   0.0000000  )
         3           C   tau(   3) = (   0.0738149  -0.0426170   0.0000000  )
         4           C   tau(   4) = (   0.0000000  -0.0852341   0.0000000  )
         5           C   tau(   5) = (  -0.0738149  -0.0426170   0.0000000  )
         6           C   tau(   6) = (  -0.0738149   0.0426170   0.0000000  )
         7           H   tau(   7) = (   0.0000000   0.1512008   0.0000000  )
         8           H   tau(   8) = (   0.1309437   0.0756004   0.0000000  )
         9           H   tau(   9) = (   0.1309437  -0.0756004   0.0000000  )
        10           H   tau(  10) = (   0.0000000  -0.1512008   0.0000000  )
        11           H   tau(  11) = (  -0.1309437  -0.0756004   0.0000000  )
        12           H   tau(  12) = (  -0.1309437   0.0756004   0.0000000  )
     ===== FROZEN DENSITY EMBEDDING METHOD ======================
 

     negative rho (up, down):  3.222E-03 0.000E+00

     Subspace diagonalization in iterative solution of the eigenvalue problem:
     a serial algorithm will be used

     alpha_pv=     29.6689 eV
 
     Calculation type      : optical     
     System is             : molecule
     Number or steps       :           10
     Time step             :       0.0413 rydberg_atomic_time
 

Coordinates of the Center of Positive Charge
    0.000000000    0.000000000    0.000000000
     Done with tddft_cgsolver_initialize
     Output quantities:
       CHARGE spin  istep  charge
       DIP    spin  istep  dipole(1:3)
       ENERGY istep etot_fde etot_frag e_int etot_frag+int 
 
     Done with restart

Kpoint:   1
Kicking Wavefunction with E-field pulse
Shifting wavefunction at Step=      0 e_strength=    0.00529
Along direction 1

     negative rho (up, down):  3.222E-03 0.000E+00
ENERGY        0  -75.9538179355    0.0000000000  -75.9538179355  -75.9538179355
DIP    1      0 -0.65872114215055E-05  0.24340725094435E-04  0.52237063048466E-05

     negative rho (up, down):  3.222E-03 0.000E+00
DIP    1      1 -0.25525272642295E-01  0.24266059928415E-04  0.52265370467097E-05
ENERGY        1  -75.9537956411    0.0000000000  -75.9537956411  -75.9537956411

     negative rho (up, down):  3.222E-03 0.000E+00
DIP    1      2 -0.50772405345172E-01  0.24137941086701E-04  0.52366762588463E-05

     negative rho (up, down):  3.222E-03 0.000E+00
DIP    1      3 -0.75496213623500E-01  0.23962077751638E-04  0.52561729120271E-05

     negative rho (up, down):  3.222E-03 0.000E+00
DIP    1      4 -0.99497971519893E-01  0.23741244986997E-04  0.52835385631056E-05

     negative rho (up, down):  3.222E-03 0.000E+00
DIP    1      5 -0.12261811849538E+00  0.23475995497631E-04  0.53154023120783E-05

     negative rho (up, down):  3.222E-03 0.000E+00
DIP    1      6 -0.14473836251086E+00  0.23168763246217E-04  0.53509998263479E-05

     negative rho (up, down):  3.222E-03 0.000E+00
DIP    1      7 -0.16579609779787E+00  0.22824450139396E-04  0.53922753853186E-05

     negative rho (up, down):  3.222E-03 0.000E+00
DIP    1      8 -0.18577474090982E+00  0.22446558824860E-04  0.54395158493037E-05

     negative rho (up, down):  3.222E-03 0.000E+00
DIP    1      9 -0.20466439167245E+00  0.22035647154430E-04  0.54897903467577E-05

     negative rho (up, down):  3.222E-03 0.000E+00
DIP    1     10 -0.22243496304025E+00  0.21592924881354E-04  0.55407042154343E-05
     Initialization:
     tddft_setup  :      0.71s CPU      0.78s WALL (       1 calls)
     gksort       :      0.01s CPU      0.01s WALL (      27 calls)
 
     SCF routines
     ch_psi       :     21.12s CPU     21.29s WALL (    2374 calls)
     h_psi        :     22.60s CPU     22.77s WALL (    2387 calls)
     s_psi        :      0.36s CPU      0.35s WALL (    2384 calls)
     v_of_rho     :     12.07s CPU     14.41s WALL (      12 calls)
     v_xc         :      3.28s CPU      3.29s WALL (      12 calls)
     v_h          :      0.39s CPU      0.40s WALL (      12 calls)
     set_vrs      :      0.40s CPU      0.40s WALL (      12 calls)
     init_us_2    :      0.03s CPU      0.03s WALL (      26 calls)
     update_rho   :      0.84s CPU      1.55s WALL (      11 calls)
 
     Real time evolution
     updateH      :     25.23s CPU     28.32s WALL (      11 calls)
     crank_nicols :     23.19s CPU     23.55s WALL (      10 calls)
     dipole       :      0.02s CPU      0.02s WALL (      11 calls)
 
     General routines
     calbec       :      3.63s CPU      3.58s WALL (    2402 calls)
     fft          :      4.56s CPU      4.57s WALL (     163 calls)
     ffts         :      0.16s CPU      0.16s WALL (      24 calls)
     fftw         :     15.80s CPU     15.99s WALL (    5348 calls)
     davcio       :      0.01s CPU      0.17s WALL (      59 calls)
 
     Parallel routines
     fft_scatter  :     17.64s CPU     17.77s WALL (    5734 calls)
 
 

     Called by init_run:

     Called by electrons:
     sum_band     :      6.78s CPU      6.88s WALL (      12 calls)
     v_of_rho     :     12.07s CPU     14.41s WALL (      12 calls)
     v_h          :      0.39s CPU      0.40s WALL (      12 calls)
     v_xc         :      3.28s CPU      3.29s WALL (      12 calls)
     newd         :      6.79s CPU      6.80s WALL (      13 calls)

     Called by c_bands:
     init_us_2    :      0.03s CPU      0.03s WALL (      26 calls)

     Called by sum_band:
     sum_band:bec :      0.00s CPU      0.00s WALL (      12 calls)
     addusdens    :      4.70s CPU      4.78s WALL (      12 calls)

     Called by *egterg:
     h_psi        :     22.60s CPU     22.77s WALL (    2387 calls)
     s_psi        :      0.36s CPU      0.35s WALL (    2384 calls)

     Called by h_psi:
     h_psi:vloc   :     18.25s CPU     18.45s WALL (    2387 calls)
     h_psi:vnl    :      4.33s CPU      4.28s WALL (    2387 calls)
     add_vuspsi   :      0.73s CPU      0.70s WALL (    2387 calls)

     General routines
     calbec       :      3.63s CPU      3.58s WALL (    2402 calls)
     fft          :      4.56s CPU      4.57s WALL (     163 calls)
     ffts         :      0.16s CPU      0.16s WALL (      24 calls)
     fftw         :     15.80s CPU     15.99s WALL (    5348 calls)
     interpolate  :      0.80s CPU      0.81s WALL (      24 calls)
     davcio       :      0.01s CPU      0.17s WALL (      59 calls)
 
     Parallel routines
     fft_scatter  :     17.64s CPU     17.77s WALL (    5734 calls)
 
     PWSCF        :     61.58s CPU     69.13s WALL (       1 calls)
 
   This run was terminated on:  14:30:44  14Aug2017            

=------------------------------------------------------------------------------=
   JOB DONE.
=------------------------------------------------------------------------------=
