{
"id": "fde_nspline",
"name": "fde_nspline",
"namelist": "&system",
"type": "integer",
"default": "80",
"description": [
"The number of $\rho_0$ to be used to spline the kernel and potential of nonlocal NAKEs.\n",
"\n",
"Only used in nonlocal NAKEs."
]
}
