{
"id": "fde_print_density",
"name": "fde_print_density",
"namelist": "&system",
"type": "logical",
"default": ".false.",
"description": [
"Print the total density to a .pp file at the end of the calculation."
]
}
