{
"id": "fde_print_embedpot",
"name": "fde_print_embedpot",
"namelist": "&system",
"type": "logical",
"default": ".false.",
"description": [
"Explicitly calculate the embedding potential of the fragment and print it to a .pp file at the end of the calculation.\n",
"\n",
"Make sure this keyword is `.true.` only for a single fragment, or eQE will arbitrarely print it only for the fragment with the lowest index.\n",
"\n",
"The embedding potential is represented into the smaller electronic cell."
]
}
