{
"id": "fde_mgga_kin",
"name": "fde_mgga_kin",
"namelist": "&system",
"type": "character",
"default": "TFL",
"description": [
"The kinetic energy functional used in deorbitalized meta-GGA exchange-correlation functional.\n",
"\n",
"It is only used in deorbitalized meta-GGA exchnage-correlation functional (SCAN-L and r2SCAN-L).\n",
"\n",
"The benchmarks of various KEDFs used in SCAN-L functionals can be found in the paper: Phys. Rev. A 96, 052512 (2017)."
]
}
