{
"id": "fde_split_mix",
"name": "fde_split_mix",
"namelist": "&system",
"type": "logical",
"default": ".true.",
"description": [
"Dynamically adjust the mixing_beta parameter of the fragment along the scf cycle.\n",
"\n",
"Helps speeding up convergence and stability."
]
}
