{
"id": "use_gaussians",
"name": "use_gaussians",
"namelist": "&electrons",
"type": "logical",
"default": ".false.",
"description": [
"If .true., it replaces the core densities of the surrounding fragments to a gaussian. This is to avoid problems of electrons leaking in the core region of surrounding fragments when <i>hard pseudopotentials</i> (such as hgh NC-PPs) are employed.\n",
"\n",
"Use use_gaussians only if you encounter convergence problems."
]
}
