     Reading input from Input_0.in
     Reading input from Input_1.in
     Reading input from Input_0.in
Warning: card &IONS ignored
Warning: card     ION_DYNAMICS='BFGS' ignored
Warning: card / ignored

     Current dimensions of program PWSCF are:
     Max number of different atomic species (ntypx) = 10
     Max number of k-points (npk) =  40000
     Max angular momentum in pseudopotentials (lmaxx) =  3

     IMPORTANT: XC functional enforced from input :
     Exchange-correlation      = RVV10 ( 1  4 13  4 3)
     Any further DFT definition will be discarded
     Please, verify this is what you really want


     Subspace diagonalization in iterative solution of the eigenvalue problem:
     a serial algorithm will be used


   Info: using nr1, nr2, nr3 values from input
 
     Parallelization info
     --------------------
     sticks:   dense  smooth     PW     G-vecs:    dense   smooth      PW
     Min        4536    1821    456               255192    64645    8088
     Max        4537    1822    457               255193    64654    8091
     Sum        9073    3643    913               510385   129299   16179
 
 
     Parallelization info Large
     --------------------
     sticks:   dense     G-vecs:    dense
     Min        2268               127596
     Max        2269               127597
     Sum        9073               510385
 


     bravais-lattice index     =            0
     lattice parameter (alat)  =       1.8897  a.u.
     unit-cell volume          =    3778.1308 (a.u.)^3
     number of atoms/cell      =            9
     number of atomic types    =            3


     Large bravais-lattice index     =            0
     Large lattice parameter (alat)  =       1.8897  a.u.
     Large unit-cell volume          =    3778.1308 (a.u.)^3
     number of electrons       =        26.00
     number of Kohn-Sham states=           13
     kinetic-energy cutoff     =      40.0000  Ry
     charge density cutoff     =     400.0000  Ry
     convergence threshold     =      1.0E-09
     mixing beta               =       0.7000
     number of iterations used =            8  plain     mixing
     Exchange-correlation      = RVV10 ( 1  4 13  4 3)
 
     ===== FROZEN DENSITY EMBEDDING METHOD ======================
     Number of fragments  :   2
     Total number of atoms:  18
     Current fragment     :   1
     Initial FDE Density  : Atomic
     Kinetic energy funct.: revAPBEK  
     Fragment Charge      :  0.00
     Total    Charge      :  0.00
     Fragment Spin        : Closed Shell
     Total    Spin        : Closed Shell
     Fragment #   1:
         1           S   tau(   1) = (  -0.0000002   1.8494560   1.0000000  )
         2           C   tau(   2) = (  -1.6485711   2.3224105   1.0000000  )
         3           C   tau(   3) = (  -0.4146951   0.1852745   1.0000000  )
         4           C   tau(   4) = (  -2.4868062   1.2325803   1.0000000  )
         5           C   tau(   5) = (  -1.7776332   0.0042567   1.0000000  )
         6           H   tau(   6) = (  -1.9151625   3.3710763   1.0000000  )
         7           H   tau(   7) = (   0.3601805  -0.5699333   1.0000000  )
         8           H   tau(   8) = (  -3.5682006   1.3157924   1.0000000  )
         9           H   tau(   9) = (  -2.2462666  -0.9738644   1.0000000  )
     Fragment #   2:
         1           S   tau(  10) = (  -0.0000002   1.8494560   4.5000000  )
         2           C   tau(  11) = (  -1.6485711   2.3224105   4.5000000  )
         3           C   tau(  12) = (  -0.4146951   0.1852745   4.5000000  )
         4           C   tau(  13) = (  -2.4868062   1.2325803   4.5000000  )
         5           C   tau(  14) = (  -1.7776332   0.0042567   4.5000000  )
         6           H   tau(  15) = (  -1.9151625   3.3710763   4.5000000  )
         7           H   tau(  16) = (   0.3601805  -0.5699333   4.5000000  )
         8           H   tau(  17) = (  -3.5682006   1.3157924   4.5000000  )
         9           H   tau(  18) = (  -2.2462666  -0.9738644   4.5000000  )
     ===== FROZEN DENSITY EMBEDDING METHOD ======================
 

     celldm(1)=   1.889726  celldm(2)=   0.000000  celldm(3)=   0.000000
     celldm(4)=   0.000000  celldm(5)=   0.000000  celldm(6)=   0.000000

     crystal axes: (cart. coord. in units of alat)
               a(1) = (   9.610054   0.000000   0.000000 )  
               a(2) = (  -4.805028   8.322552   0.000000 )  
               a(3) = (   0.000000   0.000000   7.000000 )  

     reciprocal axes: (cart. coord. in units 2 pi/alat)
               b(1) = (  0.104058  0.060078  0.000000 )  
               b(2) = (  0.000000  0.120155  0.000000 )  
               b(3) = (  0.000000  0.000000  0.142857 )  

     Large crystal axes: (cart. coord. in units of alat)
               a(1) = (   9.610054   0.000000   0.000000 )  
               a(2) = (  -4.805028   8.322552   0.000000 )  
               a(3) = (   0.000000   0.000000   7.000000 )  

     Large reciprocal axes: (cart. coord. in units 2 pi/alat)
               b(1) = (  0.104058  0.060078  0.000000 )  
               b(2) = (  0.000000  0.120155  0.000000 )  
               b(3) = (  0.000000  0.000000  0.142857 )  


     PseudoPot. # 1 for H  read from file:
     ./h_pbe_v1.4.uspp.F.UPF
     MD5 check sum: 761ae9a214b05c3daf00ab9f6b793d6f
     Pseudo is Ultrasoft, Zval =  1.0
     Generated by new atomic code, or converted to UPF format
     Using radial grid of  615 points,  2 beta functions with: 
                l(1) =   0
                l(2) =   0
     Q(r) pseudized with  8 coefficients,  rinner =    0.700

     PseudoPot. # 2 for C  read from file:
     ./c_pbe_v1.2.uspp.F.UPF
     MD5 check sum: d1aef80898a10debaa0f26306b886e00
     Pseudo is Ultrasoft + core correction, Zval =  4.0
     Generated by new atomic code, or converted to UPF format
     Using radial grid of  721 points,  4 beta functions with: 
                l(1) =   0
                l(2) =   0
                l(3) =   1
                l(4) =   1
     Q(r) pseudized with  8 coefficients,  rinner =    1.100   1.100   1.100


     PseudoPot. # 3 for S  read from file:
     ./s_pbe_v1.4.uspp.F.UPF
     MD5 check sum: 88d86576ff6df21479756cfb9bdac1df
     Pseudo is Ultrasoft + core correction, Zval =  6.0
     Generated by new atomic code, or converted to UPF format
     Using radial grid of  907 points,  6 beta functions with: 
                l(1) =   0
                l(2) =   0
                l(3) =   1
                l(4) =   1
                l(5) =   2
                l(6) =   2
     Q(r) pseudized with  8 coefficients,  rinner =    1.300   1.300   1.300
                                                       1.300   1.300

     vdW kernel table read from file rVV10_kernel_table
     MD5 check sum: e38cab1fd9b95313799b9e24ab51ef2f

     atomic species   valence    mass     pseudopotential
        H              1.00     1.00000     H ( 1.00)
        C              4.00    12.00000     C ( 1.00)
        S              6.00    32.00000     S ( 1.00)

     No symmetry found



   Cartesian axes

     site n.     atom                  positions (alat units)
         1           S   tau(   1) = (  -0.0000002   1.8494560   1.0000000  )
         2           C   tau(   2) = (  -1.6485711   2.3224105   1.0000000  )
         3           C   tau(   3) = (  -0.4146951   0.1852745   1.0000000  )
         4           C   tau(   4) = (  -2.4868062   1.2325803   1.0000000  )
         5           C   tau(   5) = (  -1.7776332   0.0042567   1.0000000  )
         6           H   tau(   6) = (  -1.9151625   3.3710763   1.0000000  )
         7           H   tau(   7) = (   0.3601805  -0.5699333   1.0000000  )
         8           H   tau(   8) = (  -3.5682006   1.3157924   1.0000000  )
         9           H   tau(   9) = (  -2.2462666  -0.9738644   1.0000000  )

     number of k points=     1
                       cart. coord. in units 2pi/alat
        k(    1) = (   0.0000000   0.0000000   0.0000000), wk =   2.0000000

     Dense  grid:   510385 G-vectors     FFT dimensions: ( 120, 120,  90)

     Smooth grid:   129299 G-vectors     FFT dimensions: (  75,  75,  54)

     Large  grid:   510385 G-vectors     FFT dimensions: ( 120, 120,  90)

     Largest allocated arrays     est. size (Mb)     dimensions
        Kohn-Sham Wavefunctions         1.60 Mb     (    8091,   13)
        NL pseudopotentials             7.16 Mb     (    8091,   58)
        Each V/rho on FFT grid          9.89 Mb     (  648000)
        Each V/rho on Large FFT grid       5.05 Mb     (  331200)
        Each G-vector array             1.95 Mb     (  255192)
        G-vector shells                 0.94 Mb     (  123569)
        Each G-vector array (Large)       0.97 Mb     (  127596)
        G-vector shells (Large)           0.47 Mb     (   61398)
     Largest temporary arrays     est. size (Mb)     dimensions
        Auxiliary wavefunctions         6.42 Mb     (    8091,   52)
        Each subspace H/S matrix        0.04 Mb     (      52,   52)
        Each <psi_i|beta_j> matrix      0.01 Mb     (      58,   13)
        Arrays for rho mixing          79.10 Mb     (  648000,    8)

     Initial potential from superposition of free atoms

     starting charge   25.99977, renormalised to   26.00000
  revAPBEK is a (semi)LOCAL NAKE
  revAPBEK is a (semi)LOCAL NAKE
     Starting wfc are   24 randomized atomic wfcs

     total cpu time spent up to now is        8.0 secs

     per-process dynamical memory:   262.0 Mb

     Self-consistent Calculation

     iteration #  1     ecut=    40.00 Ry     beta=0.70
     Davidson diagonalization with overlap
     ethr =  1.00E-02,  avg # of iterations =  2.0

     total cpu time spent up to now is       11.9 secs

     max. frag. est. scf acc.  =       1.46402738 Ry

     frag. estimated scf acc.  <       1.46402738 Ry
     total Hartree energy      =     183.81463590

     iteration #  2     ecut=    40.00 Ry     beta=0.70
     Davidson diagonalization with overlap
     ethr =  5.63E-03,  avg # of iterations =  3.0

     total cpu time spent up to now is       15.8 secs

     max. frag. est. scf acc.  =       0.17876371 Ry

     frag. estimated scf acc.  <       0.17876371 Ry
     total Hartree energy      =     185.02985851

     iteration #  3     ecut=    40.00 Ry     beta=0.70
     Davidson diagonalization with overlap
     ethr =  6.88E-04,  avg # of iterations =  3.0

     negative rho (up, down):  6.741E-06 0.000E+00

     total cpu time spent up to now is       19.6 secs

     max. frag. est. scf acc.  =       0.04818808 Ry

     frag. estimated scf acc.  <       0.04818808 Ry
     total Hartree energy      =     187.27637683

     iteration #  4     ecut=    40.00 Ry     beta=0.70
     Davidson diagonalization with overlap
     ethr =  1.85E-04,  avg # of iterations =  2.0

     negative rho (up, down):  2.492E-05 0.000E+00

     total cpu time spent up to now is       23.4 secs

     max. frag. est. scf acc.  =       0.00459924 Ry

     frag. estimated scf acc.  <       0.00459924 Ry
     total Hartree energy      =     187.45413880

     iteration #  5     ecut=    40.00 Ry     beta=0.70
     Davidson diagonalization with overlap
     ethr =  1.77E-05,  avg # of iterations =  3.0

     negative rho (up, down):  5.667E-05 0.000E+00

     total cpu time spent up to now is       27.3 secs

     max. frag. est. scf acc.  =       0.00053268 Ry

     frag. estimated scf acc.  <       0.00053268 Ry
     total Hartree energy      =     187.60485867

     iteration #  6     ecut=    40.00 Ry     beta=0.70
     Davidson diagonalization with overlap
     ethr =  2.05E-06,  avg # of iterations =  3.0

     negative rho (up, down):  7.012E-05 0.000E+00

     total cpu time spent up to now is       31.1 secs

     max. frag. est. scf acc.  =       0.00023070 Ry

     frag. estimated scf acc.  <       0.00023070 Ry
     total Hartree energy      =     187.57789883

     iteration #  7     ecut=    40.00 Ry     beta=0.70
     Davidson diagonalization with overlap
     ethr =  8.87E-07,  avg # of iterations =  4.0

     negative rho (up, down):  7.710E-05 0.000E+00

     total cpu time spent up to now is       35.0 secs

     max. frag. est. scf acc.  =       0.00033721 Ry

     frag. estimated scf acc.  <       0.00033721 Ry
     total Hartree energy      =     187.58493865

     iteration #  8     ecut=    40.00 Ry     beta=0.70
     Davidson diagonalization with overlap
     ethr =  8.87E-07,  avg # of iterations =  3.0

     negative rho (up, down):  8.608E-05 0.000E+00

     total cpu time spent up to now is       38.9 secs

     max. frag. est. scf acc.  =       0.00000533 Ry

     frag. estimated scf acc.  <       0.00000533 Ry
     total Hartree energy      =     187.59939617

     iteration #  9     ecut=    40.00 Ry     beta=0.70
     Davidson diagonalization with overlap
     ethr =  2.05E-08,  avg # of iterations =  3.0

     negative rho (up, down):  8.832E-05 0.000E+00

     total cpu time spent up to now is       42.8 secs

     max. frag. est. scf acc.  =       0.00000091 Ry

     frag. estimated scf acc.  <       0.00000091 Ry
     total Hartree energy      =     187.59852850

     iteration # 10     ecut=    40.00 Ry     beta=0.70
     Davidson diagonalization with overlap
     ethr =  3.50E-09,  avg # of iterations =  4.0

     negative rho (up, down):  8.893E-05 0.000E+00

     total cpu time spent up to now is       46.7 secs

     max. frag. est. scf acc.  =       0.00000008 Ry

     frag. estimated scf acc.  <       0.00000008 Ry
     total Hartree energy      =     187.59737973

     iteration # 11     ecut=    40.00 Ry     beta=0.70
     Davidson diagonalization with overlap
     ethr =  2.92E-10,  avg # of iterations =  3.0

     negative rho (up, down):  8.910E-05 0.000E+00

     total cpu time spent up to now is       50.5 secs

     max. frag. est. scf acc.  =       0.00000008 Ry

     frag. estimated scf acc.  <       0.00000008 Ry
     total Hartree energy      =     187.59727154

     iteration # 12     ecut=    40.00 Ry     beta=0.70
     Davidson diagonalization with overlap
     ethr =  2.92E-10,  avg # of iterations =  1.0

     negative rho (up, down):  8.913E-05 0.000E+00

     total cpu time spent up to now is       54.3 secs

     max. frag. est. scf acc.  =       0.00000006 Ry

     frag. estimated scf acc.  <       0.00000006 Ry
     total Hartree energy      =     187.59664876

     iteration # 13     ecut=    40.00 Ry     beta=0.70
     Davidson diagonalization with overlap
     ethr =  2.13E-10,  avg # of iterations =  4.0

     negative rho (up, down):  8.916E-05 0.000E+00

     total cpu time spent up to now is       58.1 secs

     max. frag. est. scf acc.  =          0.2E-08 Ry

     frag. estimated scf acc.  <          0.2E-08 Ry
     total Hartree energy      =     187.59667088

     iteration # 14     ecut=    40.00 Ry     beta=0.70
     Davidson diagonalization with overlap
     ethr =  7.22E-12,  avg # of iterations =  3.0

     negative rho (up, down):  8.917E-05 0.000E+00

     total cpu time spent up to now is       64.4 secs

     End of self-consistent calculation

          k = 0.0000 0.0000 0.0000 ( 16179 PWs)   bands (ev):

   -19.3389 -15.6474 -15.2565 -11.3115 -11.0477 -10.1188  -7.4731  -7.0096
    -6.9196  -6.7318  -5.8524  -3.6159  -3.2461

     highest occupied level (ev):    -3.2461

     max. frag. est. scf acc.  =          0.2E-09 Ry

     frag. estimated scf acc.  <          0.2E-09 Ry

     The total energy is the sum of the following terms:

     one-electron contribution =    -177.81594054 Ry
     hartree contribution      =      93.79835632 Ry
     xc contribution           =     -25.78492888 Ry
     ewald contribution        =      69.95794901 Ry
 
     FDE: sum of frag energies =     -79.68912817 Ry
     FDE: ewald double counting=     -69.95794901 Ry
     FDE: non additive kinetic =       0.06132787 Ry
     FDE: non additive E_XC    =      -0.08345645 Ry
     FDE: total energy         =    -149.66920576 Ry

     convergence has been achieved in  14 iterations

     Writing output data file thio.save
 
     init_run     :      7.40s CPU      7.73s WALL (       1 calls)
     electrons    :     53.71s CPU     56.41s WALL (       1 calls)

     Called by init_run:
     wfcinit      :      0.14s CPU      0.14s WALL (       1 calls)
     potinit      :      2.98s CPU      3.19s WALL (       1 calls)

     Called by electrons:
     c_bands      :      3.16s CPU      3.23s WALL (      14 calls)
     sum_band     :     10.35s CPU     10.68s WALL (      14 calls)
     v_of_rho     :     23.50s CPU     25.50s WALL (      15 calls)
     newd         :     17.93s CPU     18.28s WALL (      15 calls)
     mix_rho      :      0.63s CPU      0.65s WALL (      14 calls)

     Called by c_bands:
     init_us_2    :      0.08s CPU      0.08s WALL (      29 calls)
     cegterg      :      2.94s CPU      3.00s WALL (      14 calls)

     Called by *egterg:
     h_psi        :      2.71s CPU      2.75s WALL (      56 calls)
     s_psi        :      0.11s CPU      0.11s WALL (      56 calls)
     g_psi        :      0.01s CPU      0.01s WALL (      41 calls)
     cdiaghg      :      0.02s CPU      0.03s WALL (      55 calls)

     Called by h_psi:
     add_vuspsi   :      0.14s CPU      0.14s WALL (      56 calls)

     General routines
     calbec       :      0.10s CPU      0.11s WALL (      70 calls)
     fft          :      3.91s CPU      4.20s WALL (     280 calls)
     ffts         :      0.09s CPU      0.09s WALL (      29 calls)
     fftw         :      2.21s CPU      2.25s WALL (    1208 calls)
     interpolate  :      0.59s CPU      0.61s WALL (      29 calls)
     davcio       :      0.00s CPU      0.00s WALL (       1 calls)
 
     Parallel routines
     fft_scatter  :      4.26s CPU      5.03s WALL (    2510 calls)
 
     PWSCF        :     61.41s CPU     65.08s WALL (       1 calls)
 
   This run was terminated on:  23:17:50  16Jan2021            

=------------------------------------------------------------------------------=
   JOB DONE.
=------------------------------------------------------------------------------=
