     Reading input from Input_0.in
     Reading input from Input_1.in
     Reading input from Input_0.in

     Current dimensions of program PWSCF are:
     Max number of different atomic species (ntypx) = 10
     Max number of k-points (npk) =  40000
     Max angular momentum in pseudopotentials (lmaxx) =  3
               file O.pbe-rrkjus.UPF: wavefunction(s)  2S renormalized
               file H.pbe-rrkjus.UPF: wavefunction(s)  1S renormalized

     gamma-point specific algorithms are used

     Subspace diagonalization in iterative solution of the eigenvalue problem:
     a serial algorithm will be used


   Info: using nr1, nr2, nr3 values from input
 
     Parallelization info
     --------------------
     sticks:   dense  smooth     PW     G-vecs:    dense   smooth      PW
     Min        1747     694    174                77269    19542    2470
     Max        1750     695    175                77270    19585    2475
     Sum        3497    1389    349               154539    39127    4945
     Tot        1749     695    175
 
 
     Parallelization info Large
     --------------------
     sticks:   dense     G-vecs:    dense
     Min         873                38634
     Max         876                38636
     Sum        3497               154539
     Tot        1749
 


     bravais-lattice index     =            0
     lattice parameter (alat)  =      13.2281  a.u.
     unit-cell volume          =    2314.6788 (a.u.)^3
     number of atoms/cell      =            3
     number of atomic types    =            2


     Large bravais-lattice index     =            1
     Large lattice parameter (alat)  =      13.2281  a.u.
     Large unit-cell volume          =    2314.6788 (a.u.)^3
     number of electrons       =         8.00
     number of Kohn-Sham states=            4
     kinetic-energy cutoff     =      25.0000  Ry
     charge density cutoff     =     250.0000  Ry
     convergence threshold     =      1.0E-09
     mixing beta               =       0.6000
     number of iterations used =            8  plain     mixing
     Exchange-correlation      =  SLA  PW   PBE  PBE ( 1  4  3  4 0)
     nstep                     =            5

 
     ===== FROZEN DENSITY EMBEDDING METHOD ======================
     Number of fragments  :   2
     Total number of atoms:   6
     Current fragment     :   1
     Initial FDE Density  : Atomic
     Kinetic energy funct.: revAPBEK  
     Fragment Charge      :  0.00
     Total    Charge      :  0.00
     Fragment Spin        : Closed Shell
     Total    Spin        : Closed Shell
     Fragment #   1:
         1           O   tau(   1) = (   1.3277758   1.6015962   1.3781568  )
         2           H   tau(   2) = (   1.2141390   1.6510727   1.4446173  )
         3           H   tau(   3) = (   1.4163477   1.5833316   1.4876669  )
     Fragment #   2:
         1           O   tau(   4) = (   1.4852203   1.1757612   0.9006228  )
         2           H   tau(   5) = (   1.4141463   1.1904651   1.0145023  )
         3           H   tau(   6) = (   1.3953179   1.2038344   0.7996711  )
     ===== FROZEN DENSITY EMBEDDING METHOD ======================
 

     celldm(1)=  13.228083  celldm(2)=   0.000000  celldm(3)=   0.000000
     celldm(4)=   0.000000  celldm(5)=   0.000000  celldm(6)=   0.000000

     crystal axes: (cart. coord. in units of alat)
               a(1) = (   1.000000   0.000000   0.000000 )  
               a(2) = (   0.000000   1.000000   0.000000 )  
               a(3) = (   0.000000   0.000000   1.000000 )  

     reciprocal axes: (cart. coord. in units 2 pi/alat)
               b(1) = (  1.000000  0.000000  0.000000 )  
               b(2) = (  0.000000  1.000000  0.000000 )  
               b(3) = (  0.000000  0.000000  1.000000 )  

     Large crystal axes: (cart. coord. in units of alat)
               a(1) = (   1.000000   0.000000   0.000000 )  
               a(2) = (   0.000000   1.000000   0.000000 )  
               a(3) = (   0.000000   0.000000   1.000000 )  

     Large reciprocal axes: (cart. coord. in units 2 pi/alat)
               b(1) = (  1.000000  0.000000  0.000000 )  
               b(2) = (  0.000000  1.000000  0.000000 )  
               b(3) = (  0.000000  0.000000  1.000000 )  


     PseudoPot. # 1 for O  read from file:
     ./O.pbe-rrkjus.UPF
     MD5 check sum: 390ba29e75625707450f3bd3f0eb6be9
     Pseudo is Ultrasoft, Zval =  6.0
     Generated by new atomic code, or converted to UPF format
     Using radial grid of 1269 points,  4 beta functions with: 
                l(1) =   0
                l(2) =   0
                l(3) =   1
                l(4) =   1
     Q(r) pseudized with 0 coefficients 


     PseudoPot. # 2 for H  read from file:
     ./H.pbe-rrkjus.UPF
     MD5 check sum: 7cc9d459525c9a0585f487a71c3c9563
     Pseudo is Ultrasoft, Zval =  1.0
     Generated by new atomic code, or converted to UPF format
     Using radial grid of 1061 points,  2 beta functions with: 
                l(1) =   0
                l(2) =   0
     Q(r) pseudized with 0 coefficients 


     atomic species   valence    mass     pseudopotential
        O              6.00    15.99900     O ( 1.00)
        H              1.00     1.00794     H ( 1.00)

     No symmetry found


                                    s                        frac. trans.

      isym =  1     identity                                     

 cryst.   s( 1) = (     1          0          0      )
                  (     0          1          0      )
                  (     0          0          1      )

 cart.    s( 1) = (  1.0000000  0.0000000  0.0000000 )
                  (  0.0000000  1.0000000  0.0000000 )
                  (  0.0000000  0.0000000  1.0000000 )


     point group C_1 (1)    
     there are  1 classes
     the character table:

       E    
A      1.00

     the symmetry operations in each class:
     E        1

   Cartesian axes

     site n.     atom                  positions (alat units)
         1           O   tau(   1) = (   1.3277758   1.6015962   1.3781568  )
         2           H   tau(   2) = (   1.2141390   1.6510727   1.4446173  )
         3           H   tau(   3) = (   1.4163477   1.5833316   1.4876669  )

   Crystallographic axes

     site n.     atom                  positions (cryst. coord.)
         1           O   tau(   1) = (  1.3277758  1.6015962  1.3781568  )
         2           H   tau(   2) = (  1.2141390  1.6510727  1.4446173  )
         3           H   tau(   3) = (  1.4163477  1.5833316  1.4876669  )

     number of k points=     1
                       cart. coord. in units 2pi/alat
        k(    1) = (   0.0000000   0.0000000   0.0000000), wk =   2.0000000

                       cryst. coord.
        k(    1) = (   0.0000000   0.0000000   0.0000000), wk =   2.0000000

     Dense  grid:    77270 G-vectors     FFT dimensions: (  72,  72,  72)

     Smooth grid:    19564 G-vectors     FFT dimensions: (  45,  45,  45)

     Large  grid:    77270 G-vectors     FFT dimensions: (  72,  72,  72)

     Largest allocated arrays     est. size (Mb)     dimensions
        Kohn-Sham Wavefunctions         0.08 Mb     (    1238,    4)
        NL pseudopotentials             0.23 Mb     (    1238,   12)
        Each V/rho on FFT grid          2.85 Mb     (  186624)
        Each V/rho on Large FFT grid       1.42 Mb     (   93312)
        Each G-vector array             0.29 Mb     (   38635)
        G-vector shells                 0.01 Mb     (     927)
        Each G-vector array (Large)       0.15 Mb     (   19318)
        G-vector shells (Large)           0.01 Mb     (     917)
     Largest temporary arrays     est. size (Mb)     dimensions
        Auxiliary wavefunctions         0.15 Mb     (    1238,   16)
        Each subspace H/S matrix        0.00 Mb     (      16,   16)
        Each <psi_i|beta_j> matrix      0.00 Mb     (      12,    4)
        Arrays for rho mixing          22.78 Mb     (  186624,    8)

     Initial potential from superposition of free atoms

     starting charge    7.80759, renormalised to    8.00000
  revAPBEK is a (semi)LOCAL NAKE
  revAPBEK is a (semi)LOCAL NAKE
     Starting wfc are    6 randomized atomic wfcs

     total cpu time spent up to now is        0.7 secs

     per-process dynamical memory:    57.9 Mb

     Self-consistent Calculation

     iteration #  1     ecut=    25.00 Ry     beta=0.60
     Davidson diagonalization with overlap
     ethr =  1.00E-02,  avg # of iterations =  2.0

     total cpu time spent up to now is        1.0 secs

     max. frag. est. scf acc.  =       0.70364656 Ry

     frag. estimated scf acc.  <       0.64224293 Ry
     total Hartree energy      =      48.65738162

     iteration #  2     ecut=    25.00 Ry     beta=0.60
     Davidson diagonalization with overlap
     ethr =  8.03E-03,  avg # of iterations =  1.0

     total cpu time spent up to now is        1.2 secs

     max. frag. est. scf acc.  =       0.17375779 Ry

     frag. estimated scf acc.  <       0.13860170 Ry
     total Hartree energy      =      51.47469560

     iteration #  3     ecut=    25.00 Ry     beta=0.60
     Davidson diagonalization with overlap
     ethr =  1.73E-03,  avg # of iterations =  2.0

     negative rho (up, down):  1.771E-08 0.000E+00

     total cpu time spent up to now is        1.5 secs

     max. frag. est. scf acc.  =       0.04813658 Ry

     frag. estimated scf acc.  <       0.03291701 Ry
     total Hartree energy      =      52.00563648

     iteration #  4     ecut=    25.00 Ry     beta=0.60
     Davidson diagonalization with overlap
     ethr =  4.11E-04,  avg # of iterations =  1.0

     negative rho (up, down):  3.207E-05 0.000E+00

     total cpu time spent up to now is        1.7 secs

     max. frag. est. scf acc.  =       0.02104063 Ry

     frag. estimated scf acc.  <       0.00089639 Ry
     total Hartree energy      =      52.62723010

     iteration #  5     ecut=    25.00 Ry     beta=0.60
     Davidson diagonalization with overlap
     ethr =  1.12E-05,  avg # of iterations =  2.0

     negative rho (up, down):  1.708E-05 0.000E+00

     total cpu time spent up to now is        1.9 secs

     max. frag. est. scf acc.  =       0.00096868 Ry

     frag. estimated scf acc.  <       0.00021807 Ry
     total Hartree energy      =      52.61284703

     iteration #  6     ecut=    25.00 Ry     beta=0.60
     Davidson diagonalization with overlap
     ethr =  2.73E-06,  avg # of iterations =  2.0

     negative rho (up, down):  1.285E-03 0.000E+00

     total cpu time spent up to now is        2.2 secs

     max. frag. est. scf acc.  =       0.00051090 Ry

     frag. estimated scf acc.  <       0.00004396 Ry
     total Hartree energy      =      52.78834507

     iteration #  7     ecut=    25.00 Ry     beta=0.60
     Davidson diagonalization with overlap
     ethr =  5.49E-07,  avg # of iterations =  2.0

     negative rho (up, down):  9.734E-04 0.000E+00

     total cpu time spent up to now is        2.4 secs

     max. frag. est. scf acc.  =       0.00058508 Ry

     frag. estimated scf acc.  <       0.00001609 Ry
     total Hartree energy      =      52.76096165

     iteration #  8     ecut=    25.00 Ry     beta=0.60
     Davidson diagonalization with overlap
     ethr =  2.01E-07,  avg # of iterations =  2.0

     negative rho (up, down):  7.484E-04 0.000E+00

     total cpu time spent up to now is        2.6 secs

     max. frag. est. scf acc.  =       0.00022210 Ry

     frag. estimated scf acc.  <       0.00000043 Ry
     total Hartree energy      =      52.70306710

     iteration #  9     ecut=    25.00 Ry     beta=0.60
     Davidson diagonalization with overlap
     ethr =  5.38E-09,  avg # of iterations =  2.0

     negative rho (up, down):  3.194E-04 0.000E+00

     total cpu time spent up to now is        2.9 secs

     max. frag. est. scf acc.  =       0.00003068 Ry

     frag. estimated scf acc.  <       0.00000015 Ry
     total Hartree energy      =      52.70349969

     iteration # 10     ecut=    25.00 Ry     beta=0.60
     Davidson diagonalization with overlap
     ethr =  1.91E-09,  avg # of iterations =  2.0

     negative rho (up, down):  1.148E-04 0.000E+00

     total cpu time spent up to now is        3.1 secs

     max. frag. est. scf acc.  =       0.00002161 Ry

     frag. estimated scf acc.  <       0.00000010 Ry
     total Hartree energy      =      52.71349430

     iteration # 11     ecut=    25.00 Ry     beta=0.60
     Davidson diagonalization with overlap
     ethr =  1.27E-09,  avg # of iterations =  2.0

     negative rho (up, down):  1.983E-05 0.000E+00

     total cpu time spent up to now is        3.3 secs

     max. frag. est. scf acc.  =       0.00000137 Ry

     frag. estimated scf acc.  <       0.00000001 Ry
     total Hartree energy      =      52.71185189

     iteration # 12     ecut=    25.00 Ry     beta=0.60
     Davidson diagonalization with overlap
     ethr =  9.02E-11,  avg # of iterations =  2.0

     negative rho (up, down):  3.567E-06 0.000E+00

     total cpu time spent up to now is        3.6 secs

     max. frag. est. scf acc.  =       0.00000044 Ry

     frag. estimated scf acc.  <       0.00000000 Ry
     total Hartree energy      =      52.71173482

     iteration # 13     ecut=    25.00 Ry     beta=0.60
     Davidson diagonalization with overlap
     ethr =  1.60E-11,  avg # of iterations =  2.0

     negative rho (up, down):  1.354E-06 0.000E+00

     total cpu time spent up to now is        3.8 secs

     max. frag. est. scf acc.  =       0.00000008 Ry

     frag. estimated scf acc.  <       0.00000000 Ry
     total Hartree energy      =      52.71179347

     iteration # 14     ecut=    25.00 Ry     beta=0.60
     Davidson diagonalization with overlap
     ethr =  1.25E-11,  avg # of iterations =  2.0

     negative rho (up, down):  9.037E-07 0.000E+00

     total cpu time spent up to now is        4.0 secs

     max. frag. est. scf acc.  =       0.00000002 Ry

     frag. estimated scf acc.  <       0.00000000 Ry
     total Hartree energy      =      52.71195094

     iteration # 15     ecut=    25.00 Ry     beta=0.60
     Davidson diagonalization with overlap
     ethr =  3.13E-13,  avg # of iterations =  2.0

     negative rho (up, down):  7.899E-07 0.000E+00

     total cpu time spent up to now is        4.3 secs

     End of self-consistent calculation

          k = 0.0000 0.0000 0.0000 (  2473 PWs)   bands (ev):

   -24.6311 -12.1879  -8.8312  -6.6273

     occupation numbers 
     1.0000   1.0000   1.0000   1.0000

     highest occupied level (ev):    -6.6273

!    total energy              =     -36.79271991 Ry
     Harris-Foulkes estimate   =     -28.42362951 Ry
     estimated scf accuracy    <          3.7E-10 Ry

     max. frag. est. scf acc.  =          0.4E-09 Ry

     frag. estimated scf acc.  <          0.4E-11 Ry
 
     FDE: sum of frag energies =     -73.92534112
     FDE: ewald double counting=       5.41609939
     FDE: non additive kinetic =       0.00040393
     FDE: non additive E_XC    =      -0.00069488
     FDE: total energy         =     -68.50953269

     convergence has been achieved in  15 iterations

     Forces acting on atoms (Ry/au):

     atom    1 type  1   force =     0.00535952    0.00172045    0.04510739
     atom    2 type  2   force =     0.00654040   -0.00409944   -0.01494298
     atom    3 type  2   force =    -0.01158428    0.00267838   -0.02944573
     The non-local contrib.  to forces
     atom    1 type  1   force =    -0.38190090    0.42461717    2.48056935
     atom    2 type  2   force =     0.15766565   -0.06794655   -0.08522118
     atom    3 type  2   force =    -0.12022781    0.02562372   -0.13946748
     The ionic contribution  to forces
     atom    1 type  1   force =     0.35896466   -0.42333565   -4.10656490
     atom    2 type  2   force =    -3.04769346    1.29847601    1.55090337
     atom    3 type  2   force =     2.28705775   -0.41752304    2.56290100
     The local contribution  to forces
     atom    1 type  1   force =     0.02820949    0.00038210    1.67111398
     atom    2 type  2   force =     2.89648143   -1.23468256   -1.48061297
     atom    3 type  2   force =    -2.17850016    0.39452373   -2.45286711
     The core correction contribution to forces
     atom    1 type  1   force =     0.00000000    0.00000000    0.00000000
     atom    2 type  2   force =     0.00000000    0.00000000    0.00000000
     atom    3 type  2   force =     0.00000000    0.00000000    0.00000000
     The Hubbard contrib.    to forces
     atom    1 type  1   force =     0.00000000    0.00000000    0.00000000
     atom    2 type  2   force =     0.00000000    0.00000000    0.00000000
     atom    3 type  2   force =     0.00000000    0.00000000    0.00000000
     The SCF correction term to forces
     atom    1 type  1   force =    -0.00000003    0.00000305    0.00000108
     atom    2 type  2   force =     0.00000048   -0.00000011   -0.00000007
     atom    3 type  2   force =    -0.00000036    0.00000019   -0.00000000

     Total force =     0.057945     Total SCF correction =     0.000003

     Molecular Dynamics Calculation

     Starting temperature  =   340.00 K

     temperature is controlled by velocity rescaling (rescaling)

     mass O                =    16.00
     mass H                =     1.01
     Time step             =    13.00 a.u.,  0.6289 femto-seconds

     Entering Dynamics:    iteration =     1
                           time      =   0.0006 pico-seconds


ATOMIC_POSITIONS (angstrom)
O        9.295077928  11.211988306   9.646565120
H        8.510679778  11.544670065  10.118326477
H        9.892469480  11.083234620  10.416149769


     kinetic energy (Ekin) =     0.01615076 Ry
     temperature           =   340.00000000 K 
     Ekin + Etot (const)   =   -68.49338193 Ry

     Linear momentum :   -0.0000000000   -0.0000000000   -0.0000000000

     Writing output data file test_md.save
     NEW-OLD atomic charge density approx. for the potential

     negative rho (up, down):  3.497E-04 0.000E+00

     total cpu time spent up to now is        5.0 secs

     per-process dynamical memory:    67.0 Mb

     Self-consistent Calculation

     iteration #  1     ecut=    25.00 Ry     beta=0.60
     Davidson diagonalization with overlap
     ethr =  1.00E-06,  avg # of iterations =  4.0

     negative rho (up, down):  2.040E-04 0.000E+00

     total cpu time spent up to now is        5.2 secs

     max. frag. est. scf acc.  =       0.00061343 Ry

     frag. estimated scf acc.  <       0.00061343 Ry
     total Hartree energy      =      52.72544758

     iteration #  2     ecut=    25.00 Ry     beta=0.60
     Davidson diagonalization with overlap
     ethr =  7.67E-06,  avg # of iterations =  1.0

     negative rho (up, down):  1.014E-04 0.000E+00

     total cpu time spent up to now is        5.5 secs

     max. frag. est. scf acc.  =       0.00015937 Ry

     frag. estimated scf acc.  <       0.00015937 Ry
     total Hartree energy      =      52.75741291

     iteration #  3     ecut=    25.00 Ry     beta=0.60
     Davidson diagonalization with overlap
     ethr =  1.99E-06,  avg # of iterations =  2.0

     negative rho (up, down):  3.381E-05 0.000E+00

     total cpu time spent up to now is        5.7 secs

     max. frag. est. scf acc.  =       0.00003981 Ry

     frag. estimated scf acc.  <       0.00003981 Ry
     total Hartree energy      =      52.74369000

     iteration #  4     ecut=    25.00 Ry     beta=0.60
     Davidson diagonalization with overlap
     ethr =  4.98E-07,  avg # of iterations =  2.0

     negative rho (up, down):  5.218E-06 0.000E+00

     total cpu time spent up to now is        5.9 secs

     max. frag. est. scf acc.  =       0.00001407 Ry

     frag. estimated scf acc.  <       0.00001407 Ry
     total Hartree energy      =      52.74962680

     iteration #  5     ecut=    25.00 Ry     beta=0.60
     Davidson diagonalization with overlap
     ethr =  1.76E-07,  avg # of iterations =  1.0

     negative rho (up, down):  1.353E-06 0.000E+00

     total cpu time spent up to now is        6.1 secs

     max. frag. est. scf acc.  =       0.00000456 Ry

     frag. estimated scf acc.  <       0.00000456 Ry
     total Hartree energy      =      52.75166438

     iteration #  6     ecut=    25.00 Ry     beta=0.60
     Davidson diagonalization with overlap
     ethr =  5.71E-08,  avg # of iterations =  1.0

     negative rho (up, down):  8.647E-07 0.000E+00

     total cpu time spent up to now is        6.4 secs

     max. frag. est. scf acc.  =       0.00000119 Ry

     frag. estimated scf acc.  <       0.00000119 Ry
     total Hartree energy      =      52.75186544

     iteration #  7     ecut=    25.00 Ry     beta=0.60
     Davidson diagonalization with overlap
     ethr =  1.49E-08,  avg # of iterations =  1.0

     negative rho (up, down):  7.987E-07 0.000E+00

     total cpu time spent up to now is        6.6 secs

     max. frag. est. scf acc.  =       0.00000066 Ry

     frag. estimated scf acc.  <       0.00000066 Ry
     total Hartree energy      =      52.75236268

     iteration #  8     ecut=    25.00 Ry     beta=0.60
     Davidson diagonalization with overlap
     ethr =  8.23E-09,  avg # of iterations =  1.0

     negative rho (up, down):  7.889E-07 0.000E+00

     total cpu time spent up to now is        6.8 secs

     max. frag. est. scf acc.  =       0.00000026 Ry

     frag. estimated scf acc.  <       0.00000026 Ry
     total Hartree energy      =      52.75255337

     iteration #  9     ecut=    25.00 Ry     beta=0.60
     Davidson diagonalization with overlap
     ethr =  3.26E-09,  avg # of iterations =  1.0

     negative rho (up, down):  7.959E-07 0.000E+00

     total cpu time spent up to now is        7.1 secs

     max. frag. est. scf acc.  =       0.00000017 Ry

     frag. estimated scf acc.  <       0.00000017 Ry
     total Hartree energy      =      52.75294111

     iteration # 10     ecut=    25.00 Ry     beta=0.60
     Davidson diagonalization with overlap
     ethr =  2.10E-09,  avg # of iterations =  2.0

     negative rho (up, down):  7.986E-07 0.000E+00

     total cpu time spent up to now is        7.3 secs

     max. frag. est. scf acc.  =       0.00000002 Ry

     frag. estimated scf acc.  <       0.00000002 Ry
     total Hartree energy      =      52.75317919

     iteration # 11     ecut=    25.00 Ry     beta=0.60
     Davidson diagonalization with overlap
     ethr =  2.64E-10,  avg # of iterations =  2.0

     negative rho (up, down):  7.937E-07 0.000E+00

     total cpu time spent up to now is        7.6 secs

     End of self-consistent calculation

          k = 0.0000 0.0000 0.0000 (  2473 PWs)   bands (ev):

   -24.7886 -12.1976  -8.9324  -6.6594

     occupation numbers 
     1.0000   1.0000   1.0000   1.0000

     highest occupied level (ev):    -6.6594

!    total energy              =     -36.89083102 Ry
     Harris-Foulkes estimate   =     -28.50161936 Ry
     estimated scf accuracy    <          4.2E-10 Ry

     max. frag. est. scf acc.  =          0.4E-09 Ry

     frag. estimated scf acc.  <          0.4E-09 Ry
 
     FDE: sum of frag energies =     -73.86599536
     FDE: ewald double counting=       5.35663477
     FDE: non additive kinetic =       0.00040210
     FDE: non additive E_XC    =      -0.00069243
     FDE: total energy         =     -68.50965092

     convergence has been achieved in  11 iterations

     Forces acting on atoms (Ry/au):

     atom    1 type  1   force =     0.00730128   -0.00150670    0.02791853
     atom    2 type  2   force =    -0.01462168    0.00420591   -0.01059443
     atom    3 type  2   force =     0.00761553   -0.00235335   -0.01658192
     The non-local contrib.  to forces
     atom    1 type  1   force =    -0.40453786    0.39683785    2.51169358
     atom    2 type  2   force =     0.16208515   -0.06822747   -0.09117959
     atom    3 type  2   force =    -0.12113238    0.02672478   -0.14753202
     The ionic contribution  to forces
     atom    1 type  1   force =     0.41575731   -0.39662807   -4.28684159
     atom    2 type  2   force =    -3.11111408    1.29390925    1.62454042
     atom    3 type  2   force =     2.29290553   -0.43977805    2.66911099
     The local contribution  to forces
     atom    1 type  1   force =    -0.00400858   -0.00177906    1.80310048
     atom    2 type  2   force =     2.93432438   -1.22153559   -1.54394065
     atom    3 type  2   force =    -2.16423967    0.41063987   -2.53814596
     The core correction contribution to forces
     atom    1 type  1   force =     0.00000000    0.00000000    0.00000000
     atom    2 type  2   force =     0.00000000    0.00000000    0.00000000
     atom    3 type  2   force =     0.00000000    0.00000000    0.00000000
     The Hubbard contrib.    to forces
     atom    1 type  1   force =     0.00000000    0.00000000    0.00000000
     atom    2 type  2   force =     0.00000000    0.00000000    0.00000000
     atom    3 type  2   force =     0.00000000    0.00000000    0.00000000
     The SCF correction term to forces
     atom    1 type  1   force =     0.00000850    0.00000282   -0.00002064
     atom    2 type  2   force =     0.00000096   -0.00000004   -0.00000131
     atom    3 type  2   force =     0.00000012    0.00000029   -0.00000162

     Total force =     0.038952     Total SCF correction =     0.000023

     Entering Dynamics:    iteration =     2
                           time      =   0.0013 pico-seconds


ATOMIC_POSITIONS (angstrom)
O        9.295769889  11.212794271   9.646203897
H        8.520963295  11.532240918  10.123300356
H        9.871246578  11.082918951  10.417016799


     kinetic energy (Ekin) =     0.01622114 Ry
     temperature           =   341.48175667 K 
     Ekin + Etot (const)   =   -68.49342978 Ry

     Linear momentum :   -0.0000000000    0.0000000000    0.0000000000

     Writing output data file test_md.save
     NEW-OLD atomic charge density approx. for the potential

     negative rho (up, down):  3.295E-04 0.000E+00

     total cpu time spent up to now is        8.1 secs

     per-process dynamical memory:    67.0 Mb

     Self-consistent Calculation

     iteration #  1     ecut=    25.00 Ry     beta=0.60
     Davidson diagonalization with overlap
     ethr =  1.00E-06,  avg # of iterations =  4.0

     negative rho (up, down):  1.789E-04 0.000E+00

     total cpu time spent up to now is        8.3 secs

     max. frag. est. scf acc.  =       0.00065250 Ry

     frag. estimated scf acc.  <       0.00061175 Ry
     total Hartree energy      =      52.76165415

     iteration #  2     ecut=    25.00 Ry     beta=0.60
     Davidson diagonalization with overlap
     ethr =  7.65E-06,  avg # of iterations =  2.0

     negative rho (up, down):  8.097E-05 0.000E+00

     total cpu time spent up to now is        8.6 secs

     max. frag. est. scf acc.  =       0.00008231 Ry

     frag. estimated scf acc.  <       0.00007423 Ry
     total Hartree energy      =      52.76145204

     iteration #  3     ecut=    25.00 Ry     beta=0.60
     Davidson diagonalization with overlap
     ethr =  9.28E-07,  avg # of iterations =  2.0

     negative rho (up, down):  1.346E-05 0.000E+00

     total cpu time spent up to now is        8.8 secs

     max. frag. est. scf acc.  =       0.00002500 Ry

     frag. estimated scf acc.  <       0.00001833 Ry
     total Hartree energy      =      52.76206803

     iteration #  4     ecut=    25.00 Ry     beta=0.60
     Davidson diagonalization with overlap
     ethr =  2.29E-07,  avg # of iterations =  2.0

     negative rho (up, down):  2.696E-06 0.000E+00

     total cpu time spent up to now is        9.0 secs

     max. frag. est. scf acc.  =       0.00000035 Ry

     frag. estimated scf acc.  <       0.00000031 Ry
     total Hartree energy      =      52.76241460

     iteration #  5     ecut=    25.00 Ry     beta=0.60
     Davidson diagonalization with overlap
     ethr =  3.84E-09,  avg # of iterations =  2.0

     negative rho (up, down):  1.069E-06 0.000E+00

     total cpu time spent up to now is        9.3 secs

     max. frag. est. scf acc.  =       0.00000010 Ry

     frag. estimated scf acc.  <       0.00000003 Ry
     total Hartree energy      =      52.76347552

     iteration #  6     ecut=    25.00 Ry     beta=0.60
     Davidson diagonalization with overlap
     ethr =  4.24E-10,  avg # of iterations =  1.0

     negative rho (up, down):  8.327E-07 0.000E+00

     total cpu time spent up to now is        9.5 secs

     max. frag. est. scf acc.  =       0.00000003 Ry

     frag. estimated scf acc.  <       0.00000000 Ry
     total Hartree energy      =      52.76313827

     iteration #  7     ecut=    25.00 Ry     beta=0.60
     Davidson diagonalization with overlap
     ethr =  5.58E-12,  avg # of iterations =  3.0

     negative rho (up, down):  7.864E-07 0.000E+00

     total cpu time spent up to now is        9.8 secs

     End of self-consistent calculation

          k = 0.0000 0.0000 0.0000 (  2473 PWs)   bands (ev):

   -24.9472 -12.2105  -9.0261  -6.6909

     occupation numbers 
     1.0000   1.0000   1.0000   1.0000

     highest occupied level (ev):    -6.6909

!    total energy              =     -37.02858994 Ry
     Harris-Foulkes estimate   =     -28.61926871 Ry
     estimated scf accuracy    <          7.7E-10 Ry

     max. frag. est. scf acc.  =          0.7E-09 Ry

     frag. estimated scf acc.  <          0.4E-10 Ry
 
     FDE: sum of frag energies =     -73.84558467
     FDE: ewald double counting=       5.33722691
     FDE: non additive kinetic =       0.00040242
     FDE: non additive E_XC    =      -0.00069314
     FDE: total energy         =     -68.50864848

     convergence has been achieved in   7 iterations

     Forces acting on atoms (Ry/au):

     atom    1 type  1   force =     0.00759218   -0.00393725    0.00720265
     atom    2 type  2   force =    -0.03536308    0.01208772   -0.00584653
     atom    3 type  2   force =     0.02807164   -0.00777720   -0.00060931
     The non-local contrib.  to forces
     atom    1 type  1   force =    -0.42671721    0.36865954    2.54024525
     atom    2 type  2   force =     0.16622237   -0.06817258   -0.09671742
     atom    3 type  2   force =    -0.12227744    0.02802365   -0.15594995
     The ionic contribution  to forces
     atom    1 type  1   force =     0.46652723   -0.36352791   -4.46476820
     atom    2 type  2   force =    -3.17269407    1.28571729    1.69244357
     atom    3 type  2   force =     2.30307314   -0.46467214    2.77926541
     The local contribution  to forces
     atom    1 type  1   force =    -0.03230238   -0.00913106    1.93173402
     atom    2 type  2   force =     2.97102644   -1.20551961   -1.60156385
     atom    3 type  2   force =    -2.15280991    0.42880992   -2.62391659
     The core correction contribution to forces
     atom    1 type  1   force =     0.00000000    0.00000000    0.00000000
     atom    2 type  2   force =     0.00000000    0.00000000    0.00000000
     atom    3 type  2   force =     0.00000000    0.00000000    0.00000000
     The Hubbard contrib.    to forces
     atom    1 type  1   force =     0.00000000    0.00000000    0.00000000
     atom    2 type  2   force =     0.00000000    0.00000000    0.00000000
     atom    3 type  2   force =     0.00000000    0.00000000    0.00000000
     The SCF correction term to forces
     atom    1 type  1   force =     0.00000115    0.00000054    0.00000035
     atom    2 type  2   force =    -0.00000123    0.00000098   -0.00000004
     atom    3 type  2   force =     0.00000246   -0.00000026    0.00000059

     Total force =     0.049038     Total SCF correction =     0.000003

     Entering Dynamics:    iteration =     3
                           time      =   0.0019 pico-seconds


ATOMIC_POSITIONS (angstrom)
O        9.296508413  11.213576090   9.645886847
H        8.527804318  11.520988475  10.127705093
H        9.852756370  11.081846194  10.417824514


     kinetic energy (Ekin) =     0.01521044 Ry
     temperature           =   320.20474944 K 
     Ekin + Etot (const)   =   -68.49343804 Ry

     Linear momentum :   -0.0000000000    0.0000000000   -0.0000000000

     Writing output data file test_md.save
     NEW-OLD atomic charge density approx. for the potential

     negative rho (up, down):  2.726E-04 0.000E+00

     total cpu time spent up to now is       10.3 secs

     per-process dynamical memory:    67.0 Mb

     Self-consistent Calculation

     iteration #  1     ecut=    25.00 Ry     beta=0.60
     Davidson diagonalization with overlap
     ethr =  1.00E-06,  avg # of iterations =  4.0

     negative rho (up, down):  1.469E-04 0.000E+00

     total cpu time spent up to now is       10.5 secs

     max. frag. est. scf acc.  =       0.00074107 Ry

     frag. estimated scf acc.  <       0.00038727 Ry
     total Hartree energy      =      52.76990608

     iteration #  2     ecut=    25.00 Ry     beta=0.60
     Davidson diagonalization with overlap
     ethr =  4.84E-06,  avg # of iterations =  2.0

     negative rho (up, down):  7.293E-05 0.000E+00

     total cpu time spent up to now is       10.8 secs

     max. frag. est. scf acc.  =       0.00020052 Ry

     frag. estimated scf acc.  <       0.00003534 Ry
     total Hartree energy      =      52.73199461

     iteration #  3     ecut=    25.00 Ry     beta=0.60
     Davidson diagonalization with overlap
     ethr =  4.42E-07,  avg # of iterations =  2.0

     negative rho (up, down):  2.501E-05 0.000E+00

     total cpu time spent up to now is       11.0 secs

     max. frag. est. scf acc.  =       0.00004476 Ry

     frag. estimated scf acc.  <       0.00000572 Ry
     total Hartree energy      =      52.74531014

     iteration #  4     ecut=    25.00 Ry     beta=0.60
     Davidson diagonalization with overlap
     ethr =  7.15E-08,  avg # of iterations =  1.0

     negative rho (up, down):  5.490E-06 0.000E+00

     total cpu time spent up to now is       11.2 secs

     max. frag. est. scf acc.  =       0.00001727 Ry

     frag. estimated scf acc.  <       0.00000020 Ry
     total Hartree energy      =      52.74161729

     iteration #  5     ecut=    25.00 Ry     beta=0.60
     Davidson diagonalization with overlap
     ethr =  2.46E-09,  avg # of iterations =  2.0

     negative rho (up, down):  1.627E-06 0.000E+00

     total cpu time spent up to now is       11.5 secs

     max. frag. est. scf acc.  =       0.00000335 Ry

     frag. estimated scf acc.  <       0.00000001 Ry
     total Hartree energy      =      52.74024921

     iteration #  6     ecut=    25.00 Ry     beta=0.60
     Davidson diagonalization with overlap
     ethr =  1.55E-10,  avg # of iterations =  2.0

     negative rho (up, down):  9.572E-07 0.000E+00

     total cpu time spent up to now is       11.7 secs

     max. frag. est. scf acc.  =       0.00000116 Ry

     frag. estimated scf acc.  <       0.00000000 Ry
     total Hartree energy      =      52.74000923

     iteration #  7     ecut=    25.00 Ry     beta=0.60
     Davidson diagonalization with overlap
     ethr =  1.00E-11,  avg # of iterations =  2.0

     negative rho (up, down):  8.283E-07 0.000E+00

     total cpu time spent up to now is       11.9 secs

     max. frag. est. scf acc.  =       0.00000068 Ry

     frag. estimated scf acc.  <       0.00000000 Ry
     total Hartree energy      =      52.73962206

     iteration #  8     ecut=    25.00 Ry     beta=0.60
     Davidson diagonalization with overlap
     ethr =  7.53E-13,  avg # of iterations =  3.0

     negative rho (up, down):  8.131E-07 0.000E+00

     total cpu time spent up to now is       12.2 secs

     max. frag. est. scf acc.  =       0.00000026 Ry

     frag. estimated scf acc.  <       0.00000000 Ry
     total Hartree energy      =      52.73957225

     iteration #  9     ecut=    25.00 Ry     beta=0.60
     Davidson diagonalization with overlap
     ethr =  1.62E-13,  avg # of iterations =  2.0

     negative rho (up, down):  7.929E-07 0.000E+00

     total cpu time spent up to now is       12.4 secs

     max. frag. est. scf acc.  =       0.00000022 Ry

     frag. estimated scf acc.  <       0.00000000 Ry
     total Hartree energy      =      52.73934322

     iteration # 10     ecut=    25.00 Ry     beta=0.60
     Davidson diagonalization with overlap
     ethr =  1.00E-13,  avg # of iterations =  3.0

     negative rho (up, down):  7.821E-07 0.000E+00

     total cpu time spent up to now is       12.6 secs

     max. frag. est. scf acc.  =       0.00000007 Ry

     frag. estimated scf acc.  <       0.00000000 Ry
     total Hartree energy      =      52.73901389

     iteration # 11     ecut=    25.00 Ry     beta=0.60
     Davidson diagonalization with overlap
     ethr =  1.00E-13,  avg # of iterations =  3.0

     negative rho (up, down):  7.856E-07 0.000E+00

     total cpu time spent up to now is       12.9 secs

     End of self-consistent calculation

          k = 0.0000 0.0000 0.0000 (  2473 PWs)   bands (ev):

   -25.0762 -12.2107  -9.1047  -6.7156

     occupation numbers 
     1.0000   1.0000   1.0000   1.0000

     highest occupied level (ev):    -6.7156

!    total energy              =     -37.17631683 Ry
     Harris-Foulkes estimate   =     -28.75126411 Ry
     estimated scf accuracy    <          8.1E-10 Ry

     max. frag. est. scf acc.  =          0.8E-09 Ry

     frag. estimated scf acc.  <          0.4E-11 Ry
 
     FDE: sum of frag energies =     -73.86800269
     FDE: ewald double counting=       5.36173718
     FDE: non additive kinetic =       0.00040438
     FDE: non additive E_XC    =      -0.00069622
     FDE: total energy         =     -68.50655734

     convergence has been achieved in  11 iterations

     Forces acting on atoms (Ry/au):

     atom    1 type  1   force =     0.00532981   -0.00467670   -0.01120966
     atom    2 type  2   force =    -0.05114684    0.01777815   -0.00278037
     atom    3 type  2   force =     0.04609799   -0.01270062    0.01474812
     The non-local contrib.  to forces
     atom    1 type  1   force =    -0.44840841    0.33992776    2.56366350
     atom    2 type  2   force =     0.16905272   -0.06737516   -0.10091800
     atom    3 type  2   force =    -0.12288786    0.02936821   -0.16334525
     The ionic contribution  to forces
     atom    1 type  1   force =     0.50794939   -0.32104261   -4.61299838
     atom    2 type  2   force =    -3.21870659    1.26845029    1.74391564
     atom    3 type  2   force =     2.30719183   -0.48987002    2.87656071
     The local contribution  to forces
     atom    1 type  1   force =    -0.05428835   -0.02362604    2.03813341
     atom    2 type  2   force =     2.99842741   -1.18336518   -1.64576919
     atom    3 type  2   force =    -2.13828566    0.44773296   -2.69845856
     The core correction contribution to forces
     atom    1 type  1   force =     0.00000000    0.00000000    0.00000000
     atom    2 type  2   force =     0.00000000    0.00000000    0.00000000
     atom    3 type  2   force =     0.00000000    0.00000000    0.00000000
     The Hubbard contrib.    to forces
     atom    1 type  1   force =     0.00000000    0.00000000    0.00000000
     atom    2 type  2   force =     0.00000000    0.00000000    0.00000000
     atom    3 type  2   force =     0.00000000    0.00000000    0.00000000
     The SCF correction term to forces
     atom    1 type  1   force =    -0.00000244   -0.00000420    0.00000061
     atom    2 type  2   force =    -0.00000001   -0.00000020   -0.00000003
     atom    3 type  2   force =     0.00000006   -0.00000017    0.00000001

     Total force =     0.074964     Total SCF correction =     0.000005

     Entering Dynamics:    iteration =     4
                           time      =   0.0025 pico-seconds


ATOMIC_POSITIONS (angstrom)
O        9.297279623  11.214329226   9.645501050
H        8.529666344  11.511466683  10.131839169
H        9.838753667  11.079537068  10.420067916


     kinetic energy (Ekin) =     0.01317367 Ry
     temperature           =   277.32730843 K 
     Ekin + Etot (const)   =   -68.49338368 Ry

     Linear momentum :   -0.0000000000    0.0000000000   -0.0000000000

     Writing output data file test_md.save
     NEW-OLD atomic charge density approx. for the potential

     negative rho (up, down):  1.922E-04 0.000E+00

     total cpu time spent up to now is       13.4 secs

     per-process dynamical memory:    67.0 Mb

     Self-consistent Calculation

     iteration #  1     ecut=    25.00 Ry     beta=0.60
     Davidson diagonalization with overlap
     ethr =  1.00E-06,  avg # of iterations =  3.0

     negative rho (up, down):  1.160E-04 0.000E+00

     total cpu time spent up to now is       13.7 secs

     max. frag. est. scf acc.  =       0.00059642 Ry

     frag. estimated scf acc.  <       0.00011617 Ry
     total Hartree energy      =      52.72886884

     iteration #  2     ecut=    25.00 Ry     beta=0.60
     Davidson diagonalization with overlap
     ethr =  1.45E-06,  avg # of iterations =  2.0

     negative rho (up, down):  6.280E-05 0.000E+00

     total cpu time spent up to now is       13.9 secs

     max. frag. est. scf acc.  =       0.00031092 Ry

     frag. estimated scf acc.  <       0.00001649 Ry
     total Hartree energy      =      52.67399651

     iteration #  3     ecut=    25.00 Ry     beta=0.60
     Davidson diagonalization with overlap
     ethr =  2.06E-07,  avg # of iterations =  2.0

     negative rho (up, down):  2.325E-05 0.000E+00

     total cpu time spent up to now is       14.1 secs

     max. frag. est. scf acc.  =       0.00004108 Ry

     frag. estimated scf acc.  <       0.00000287 Ry
     total Hartree energy      =      52.68841225

     iteration #  4     ecut=    25.00 Ry     beta=0.60
     Davidson diagonalization with overlap
     ethr =  3.59E-08,  avg # of iterations =  2.0

     negative rho (up, down):  5.465E-06 0.000E+00

     total cpu time spent up to now is       14.4 secs

     max. frag. est. scf acc.  =       0.00001648 Ry

     frag. estimated scf acc.  <       0.00000007 Ry
     total Hartree energy      =      52.68386041

     iteration #  5     ecut=    25.00 Ry     beta=0.60
     Davidson diagonalization with overlap
     ethr =  8.99E-10,  avg # of iterations =  2.0

     negative rho (up, down):  1.579E-06 0.000E+00

     total cpu time spent up to now is       14.6 secs

     max. frag. est. scf acc.  =       0.00000326 Ry

     frag. estimated scf acc.  <       0.00000000 Ry
     total Hartree energy      =      52.68269211

     iteration #  6     ecut=    25.00 Ry     beta=0.60
     Davidson diagonalization with overlap
     ethr =  5.93E-11,  avg # of iterations =  2.0

     negative rho (up, down):  9.428E-07 0.000E+00

     total cpu time spent up to now is       14.8 secs

     max. frag. est. scf acc.  =       0.00000100 Ry

     frag. estimated scf acc.  <       0.00000000 Ry
     total Hartree energy      =      52.68242241

     iteration #  7     ecut=    25.00 Ry     beta=0.60
     Davidson diagonalization with overlap
     ethr =  1.20E-11,  avg # of iterations =  2.0

     negative rho (up, down):  8.196E-07 0.000E+00

     total cpu time spent up to now is       15.1 secs

     max. frag. est. scf acc.  =       0.00000064 Ry

     frag. estimated scf acc.  <       0.00000000 Ry
     total Hartree energy      =      52.68202838

     iteration #  8     ecut=    25.00 Ry     beta=0.60
     Davidson diagonalization with overlap
     ethr =  2.77E-12,  avg # of iterations =  2.0

     negative rho (up, down):  7.880E-07 0.000E+00

     total cpu time spent up to now is       15.3 secs

     max. frag. est. scf acc.  =       0.00000025 Ry

     frag. estimated scf acc.  <       0.00000000 Ry
     total Hartree energy      =      52.68161300

     iteration #  9     ecut=    25.00 Ry     beta=0.60
     Davidson diagonalization with overlap
     ethr =  2.94E-13,  avg # of iterations =  3.0

     negative rho (up, down):  7.819E-07 0.000E+00

     total cpu time spent up to now is       15.5 secs

     max. frag. est. scf acc.  =       0.00000009 Ry

     frag. estimated scf acc.  <       0.00000000 Ry
     total Hartree energy      =      52.68141507

     iteration # 10     ecut=    25.00 Ry     beta=0.60
     Davidson diagonalization with overlap
     ethr =  1.15E-13,  avg # of iterations =  2.0

     negative rho (up, down):  7.766E-07 0.000E+00

     total cpu time spent up to now is       15.8 secs

     max. frag. est. scf acc.  =       0.00000002 Ry

     frag. estimated scf acc.  <       0.00000000 Ry
     total Hartree energy      =      52.68114507

     iteration # 11     ecut=    25.00 Ry     beta=0.60
     Davidson diagonalization with overlap
     ethr =  1.00E-13,  avg # of iterations =  3.0

     negative rho (up, down):  7.794E-07 0.000E+00

     total cpu time spent up to now is       16.1 secs

     End of self-consistent calculation

          k = 0.0000 0.0000 0.0000 (  2473 PWs)   bands (ev):

   -25.1467 -12.1865  -9.1610  -6.7283

     occupation numbers 
     1.0000   1.0000   1.0000   1.0000

     highest occupied level (ev):    -6.7283

!    total energy              =     -37.30500950 Ry
     Harris-Foulkes estimate   =     -28.87248330 Ry
     estimated scf accuracy    <          1.9E-10 Ry

     max. frag. est. scf acc.  =          0.2E-09 Ry

     frag. estimated scf acc.  <          0.3E-12 Ry
 
     FDE: sum of frag energies =     -73.93454552
     FDE: ewald double counting=       5.43052294
     FDE: non additive kinetic =       0.00040713
     FDE: non additive E_XC    =      -0.00070064
     FDE: total energy         =     -68.50431609

     convergence has been achieved in  11 iterations

     Forces acting on atoms (Ry/au):

     atom    1 type  1   force =     0.00045950   -0.00340608   -0.02061436
     atom    2 type  2   force =    -0.05784918    0.01985765   -0.00330870
     atom    3 type  2   force =     0.05764468   -0.01603168    0.02469077
     The non-local contrib.  to forces
     atom    1 type  1   force =    -0.46922707    0.31070453    2.57980792
     atom    2 type  2   force =     0.16981591   -0.06560396   -0.10300212
     atom    3 type  2   force =    -0.12231268    0.03058399   -0.16827801
     The ionic contribution  to forces
     atom    1 type  1   force =     0.53834218   -0.26858693   -4.70461960
     atom    2 type  2   force =    -3.23808334    1.23864704    1.76974131
     atom    3 type  2   force =     2.29589119   -0.51260860    2.94307876
     The local contribution  to forces
     atom    1 type  1   force =    -0.06872740   -0.04559443    2.10420341
     atom    2 type  2   force =     3.01034565   -1.15325853   -1.67004074
     atom    3 type  2   force =    -2.11600640    0.46591981   -2.75010286
     The core correction contribution to forces
     atom    1 type  1   force =     0.00000000    0.00000000    0.00000000
     atom    2 type  2   force =     0.00000000    0.00000000    0.00000000
     atom    3 type  2   force =     0.00000000    0.00000000    0.00000000
     The Hubbard contrib.    to forces
     atom    1 type  1   force =     0.00000000    0.00000000    0.00000000
     atom    2 type  2   force =     0.00000000    0.00000000    0.00000000
     atom    3 type  2   force =     0.00000000    0.00000000    0.00000000
     The SCF correction term to forces
     atom    1 type  1   force =    -0.00000087   -0.00000254    0.00000108
     atom    2 type  2   force =    -0.00000006   -0.00000019    0.00000002
     atom    3 type  2   force =    -0.00000009   -0.00000017    0.00000005

     Total force =     0.091532     Total SCF correction =     0.000003

     Entering Dynamics:    iteration =     5
                           time      =   0.0031 pico-seconds


     Velocity rescaling: T ( 277.3K) out of range, reset to  340.0

ATOMIC_POSITIONS (angstrom)
O        9.298136359  11.215142243   9.644947453
H        8.526096609  11.502856827  10.136094506
H        9.828860809  11.075419666  10.424955484


     kinetic energy (Ekin) =     0.01360503 Ry
     temperature           =   286.40833886 K 
     Ekin + Etot (const)   =   -68.49071106 Ry

     Linear momentum :    0.0000000000    0.0000000000    0.0000000000
     NEW-OLD atomic charge density approx. for the potential

     negative rho (up, down):  1.521E-04 0.000E+00

     total cpu time spent up to now is       16.5 secs

     per-process dynamical memory:    67.0 Mb

     Self-consistent Calculation

     iteration #  1     ecut=    25.00 Ry     beta=0.60
     Davidson diagonalization with overlap
     ethr =  1.00E-06,  avg # of iterations =  3.0

     negative rho (up, down):  1.034E-04 0.000E+00

     total cpu time spent up to now is       16.7 secs

     max. frag. est. scf acc.  =       0.00044032 Ry

     frag. estimated scf acc.  <       0.00005312 Ry
     total Hartree energy      =      52.61645643

     iteration #  2     ecut=    25.00 Ry     beta=0.60
     Davidson diagonalization with overlap
     ethr =  6.64E-07,  avg # of iterations =  2.0

     negative rho (up, down):  5.843E-05 0.000E+00

     total cpu time spent up to now is       17.0 secs

     max. frag. est. scf acc.  =       0.00024476 Ry

     frag. estimated scf acc.  <       0.00000944 Ry
     total Hartree energy      =      52.58757780

     iteration #  3     ecut=    25.00 Ry     beta=0.60
     Davidson diagonalization with overlap
     ethr =  1.18E-07,  avg # of iterations =  2.0

     negative rho (up, down):  2.272E-05 0.000E+00

     total cpu time spent up to now is       17.2 secs

     max. frag. est. scf acc.  =       0.00004269 Ry

     frag. estimated scf acc.  <       0.00000207 Ry
     total Hartree energy      =      52.59711183

     iteration #  4     ecut=    25.00 Ry     beta=0.60
     Davidson diagonalization with overlap
     ethr =  2.59E-08,  avg # of iterations =  2.0

     negative rho (up, down):  5.785E-06 0.000E+00

     total cpu time spent up to now is       17.4 secs

     max. frag. est. scf acc.  =       0.00001831 Ry

     frag. estimated scf acc.  <       0.00000002 Ry
     total Hartree energy      =      52.59187818

     iteration #  5     ecut=    25.00 Ry     beta=0.60
     Davidson diagonalization with overlap
     ethr =  2.84E-10,  avg # of iterations =  2.0

     negative rho (up, down):  1.552E-06 0.000E+00

     total cpu time spent up to now is       17.6 secs

     max. frag. est. scf acc.  =       0.00000307 Ry

     frag. estimated scf acc.  <       0.00000000 Ry
     total Hartree energy      =      52.59066480

     iteration #  6     ecut=    25.00 Ry     beta=0.60
     Davidson diagonalization with overlap
     ethr =  8.75E-12,  avg # of iterations =  2.0

     negative rho (up, down):  9.080E-07 0.000E+00

     total cpu time spent up to now is       17.9 secs

     max. frag. est. scf acc.  =       0.00000063 Ry

     frag. estimated scf acc.  <       0.00000000 Ry
     total Hartree energy      =      52.59046157

     iteration #  7     ecut=    25.00 Ry     beta=0.60
     Davidson diagonalization with overlap
     ethr =  8.65E-13,  avg # of iterations =  2.0

     negative rho (up, down):  7.985E-07 0.000E+00

     total cpu time spent up to now is       18.1 secs

     max. frag. est. scf acc.  =       0.00000041 Ry

     frag. estimated scf acc.  <       0.00000000 Ry
     total Hartree energy      =      52.59005818

     iteration #  8     ecut=    25.00 Ry     beta=0.60
     Davidson diagonalization with overlap
     ethr =  1.00E-13,  avg # of iterations =  3.0

     negative rho (up, down):  7.841E-07 0.000E+00

     total cpu time spent up to now is       18.3 secs

     max. frag. est. scf acc.  =       0.00000010 Ry

     frag. estimated scf acc.  <       0.00000000 Ry
     total Hartree energy      =      52.58999167

     iteration #  9     ecut=    25.00 Ry     beta=0.60
     Davidson diagonalization with overlap
     ethr =  1.00E-13,  avg # of iterations =  2.0

     negative rho (up, down):  7.739E-07 0.000E+00

     total cpu time spent up to now is       18.6 secs

     max. frag. est. scf acc.  =       0.00000009 Ry

     frag. estimated scf acc.  <       0.00000000 Ry
     total Hartree energy      =      52.58970944

     iteration # 10     ecut=    25.00 Ry     beta=0.60
     Davidson diagonalization with overlap
     ethr =  1.00E-13,  avg # of iterations =  2.0

     negative rho (up, down):  7.722E-07 0.000E+00

     total cpu time spent up to now is       18.8 secs

     max. frag. est. scf acc.  =       0.00000002 Ry

     frag. estimated scf acc.  <       0.00000000 Ry
     total Hartree energy      =      52.58950596

     iteration # 11     ecut=    25.00 Ry     beta=0.60
     Davidson diagonalization with overlap
     ethr =  1.00E-13,  avg # of iterations =  2.0

     negative rho (up, down):  7.736E-07 0.000E+00

     total cpu time spent up to now is       19.1 secs

     End of self-consistent calculation

          k = 0.0000 0.0000 0.0000 (  2473 PWs)   bands (ev):

   -25.1493 -12.1309  -9.1966  -6.7274

     occupation numbers 
     1.0000   1.0000   1.0000   1.0000

     highest occupied level (ev):    -6.7274

!    total energy              =     -37.40628687 Ry
     Harris-Foulkes estimate   =     -28.97583453 Ry
     estimated scf accuracy    <          1.1E-10 Ry

     max. frag. est. scf acc.  =          0.9E-10 Ry

     frag. estimated scf acc.  <          0.2E-10 Ry
 
     FDE: sum of frag energies =     -74.04709268
     FDE: ewald double counting=       5.54466906
     FDE: non additive kinetic =       0.00041043
     FDE: non additive E_XC    =      -0.00070595
     FDE: total energy         =     -68.50271913

     convergence has been achieved in  11 iterations

     Forces acting on atoms (Ry/au):

     atom    1 type  1   force =    -0.00647843   -0.00052476   -0.01756356
     atom    2 type  2   force =    -0.05441760    0.01818917   -0.00815082
     atom    3 type  2   force =     0.06115191   -0.01723612    0.02648748
     The non-local contrib.  to forces
     atom    1 type  1   force =    -0.49077685    0.27804807    2.58889653
     atom    2 type  2   force =     0.16836493   -0.06269742   -0.10283826
     atom    3 type  2   force =    -0.12015724    0.03165761   -0.17025303
     The ionic contribution  to forces
     atom    1 type  1   force =     0.56196932   -0.20277319   -4.73241329
     atom    2 type  2   force =    -3.22871215    1.19301780    1.76837642
     atom    3 type  2   force =     2.26276447   -0.53308380    2.97301578
     The local contribution  to forces
     atom    1 type  1   force =    -0.07774060   -0.07587103    2.12596861
     atom    2 type  2   force =     3.00585516   -1.11220687   -1.67368203
     atom    3 type  2   force =    -2.08152951    0.48411431   -2.77626837
     The core correction contribution to forces
     atom    1 type  1   force =     0.00000000    0.00000000    0.00000000
     atom    2 type  2   force =     0.00000000    0.00000000    0.00000000
     atom    3 type  2   force =     0.00000000    0.00000000    0.00000000
     The Hubbard contrib.    to forces
     atom    1 type  1   force =     0.00000000    0.00000000    0.00000000
     atom    2 type  2   force =     0.00000000    0.00000000    0.00000000
     atom    3 type  2   force =     0.00000000    0.00000000    0.00000000
     The SCF correction term to forces
     atom    1 type  1   force =    -0.00000465   -0.00000460   -0.00000899
     atom    2 type  2   force =     0.00000010   -0.00000033   -0.00000055
     atom    3 type  2   force =    -0.00000018   -0.00000022   -0.00000049

     Total force =     0.091910     Total SCF correction =     0.000011

     The maximum number of steps has been reached.

     End of molecular dynamics calculation

     diffusion coefficients :
     atom     1   D =       0.00000018 cm^2/s
     atom     2   D =       0.00002273 cm^2/s
     atom     3   D =       0.00003982 cm^2/s

     < D > =       0.00002091 cm^2/s

     < D > FDE =       0.00002906 cm^2/s

     Entering Dynamics:    iteration =     6
                           time      =   0.0038 pico-seconds


     Velocity rescaling: T ( 286.4K) out of range, reset to  340.0

ATOMIC_POSITIONS (angstrom)
O        9.299030082  11.216024846   9.644236566
H        8.516909814  11.495246633  10.139937443
H        9.824035021  11.069255670  10.432859206


     kinetic energy (Ekin) =     0.01434352 Ry
     temperature           =   301.95458709 K 
     Ekin + Etot (const)   =   -68.48837562 Ry

     Linear momentum :   -0.0000000000    0.0000000000   -0.0000000000

     Writing output data file test_md.save
 
     init_run     :      0.39s CPU      0.53s WALL (       1 calls)
     electrons    :     13.67s CPU     15.95s WALL (       6 calls)
     update_pot   :      1.36s CPU      1.64s WALL (       5 calls)
     forces       :      0.30s CPU      0.32s WALL (       6 calls)

     Called by init_run:
     wfcinit      :      0.01s CPU      0.02s WALL (       1 calls)
     potinit      :      0.14s CPU      0.19s WALL (       1 calls)

     Called by electrons:
     c_bands      :      0.58s CPU      0.59s WALL (      66 calls)
     sum_band     :      1.98s CPU      2.03s WALL (      66 calls)
     v_of_rho     :      8.84s CPU     10.94s WALL (      72 calls)
     v_h          :      0.16s CPU      0.24s WALL (      72 calls)
     v_xc         :      2.76s CPU      3.27s WALL (      83 calls)
     newd         :      1.88s CPU      1.90s WALL (      72 calls)
     mix_rho      :      0.56s CPU      0.58s WALL (      66 calls)

     Called by c_bands:
     init_us_2    :      0.02s CPU      0.02s WALL (     133 calls)
     regterg      :      0.55s CPU      0.56s WALL (      66 calls)

     Called by sum_band:
     sum_band:bec :      0.00s CPU      0.00s WALL (      66 calls)
     addusdens    :      1.07s CPU      1.08s WALL (      66 calls)

     Called by *egterg:
     h_psi        :      0.52s CPU      0.54s WALL (     204 calls)
     s_psi        :      0.00s CPU      0.00s WALL (     204 calls)
     g_psi        :      0.00s CPU      0.00s WALL (     137 calls)
     rdiaghg      :      0.01s CPU      0.01s WALL (     198 calls)
     regterg:over :      0.00s CPU      0.00s WALL (     137 calls)
     regterg:upda :      0.00s CPU      0.00s WALL (     137 calls)
     regterg:last :      0.00s CPU      0.00s WALL (      69 calls)

     Called by h_psi:
     h_psi:vloc   :      0.51s CPU      0.52s WALL (     204 calls)
     h_psi:vnl    :      0.01s CPU      0.02s WALL (     204 calls)
     add_vuspsi   :      0.00s CPU      0.00s WALL (     204 calls)

     General routines
     calbec       :      0.01s CPU      0.02s WALL (     294 calls)
     fft          :      3.98s CPU      4.31s WALL (    1162 calls)
     ffts         :      0.12s CPU      0.13s WALL (     138 calls)
     fftw         :      0.51s CPU      0.52s WALL (     906 calls)
     interpolate  :      0.74s CPU      0.77s WALL (     138 calls)
     davcio       :      0.00s CPU      0.00s WALL (       5 calls)
 
     Parallel routines
     fft_scatter  :      2.12s CPU      2.64s WALL (    3382 calls)
 
     PWSCF        :     16.12s CPU     19.23s WALL (       1 calls)
 
   This run was terminated on:  23: 2:55  16Jan2021            

=------------------------------------------------------------------------------=
   JOB DONE.
=------------------------------------------------------------------------------=
