     Reading input from Input_0.in

     Current dimensions of program PWSCF are:
     Max number of different atomic species (ntypx) = 10
     Max number of k-points (npk) =  40000
     Max angular momentum in pseudopotentials (lmaxx) =  3
               file O.pbe-rrkjus.UPF: wavefunction(s)  2S renormalized
               file H.pbe-rrkjus.UPF: wavefunction(s)  1S renormalized

     Subspace diagonalization in iterative solution of the eigenvalue problem:
     a serial algorithm will be used


   Info: using nr1, nr2, nr3 values from input
 
     G-vector sticks info
     --------------------
     sticks:   dense  smooth     PW     G-vecs:    dense   smooth      PW
     Sum        3705    1481    373               168285    42499    5377
 
 
     Parallelization info Large
     --------------------
     sticks:   dense     G-vecs:    dense
     Min        3409               259479
     Max        3410               259480
     Sum       10229               778439
 


     bravais-lattice index     =            0
     lattice parameter (alat)  =      22.6767  a.u.
     unit-cell volume          =    2518.8024 (a.u.)^3
     number of atoms/cell      =            3
     number of atomic types    =            2


     Large bravais-lattice index     =            1
     Large lattice parameter (alat)  =      22.6767  a.u.
     Large unit-cell volume          =   11661.1222 (a.u.)^3
     number of electrons       =         8.00
     number of Kohn-Sham states=            4
     kinetic-energy cutoff     =      25.0000  Ry
     charge density cutoff     =     250.0000  Ry
     convergence threshold     =      1.0E-08
     mixing beta               =       0.7000
     number of iterations used =            8  plain     mixing
     Exchange-correlation      =  SLA  PW   PBE  PBE ( 1  4  3  4 0)
 
     ===== FROZEN DENSITY EMBEDDING METHOD ======================
     Number of fragments  :   3
     Total number of atoms:   9
     Current fragment     :   1
     Initial FDE Density  : Atomic
     Kinetic energy funct.: revAPBEK  
     Fragment Charge      :  0.00
     Total    Charge      :  0.00
     Fragment Spin        : Closed Shell
     Total    Spin        : Closed Shell
     Fragment #   1:
         1           O   tau(   1) = (   0.0000000   0.0000000  -0.0218271  )
         2           H   tau(   2) = (   0.0000000   0.0643023   0.0285514  )
         3           H   tau(   3) = (   0.0000000  -0.0643023   0.0285514  )
     Fragment #   2:
         1           O   tau(   4) = (   0.0000000  -0.1915162   0.1358650  )
         2           H   tau(   5) = (  -0.0641045  -0.1901859   0.1855705  )
         3           H   tau(   6) = (   0.0641045  -0.1901859   0.1855705  )
     Fragment #   3:
         1           O   tau(   7) = (   0.0000000   0.1915162   0.1358650  )
         2           H   tau(   8) = (  -0.0641045   0.1901859   0.1855705  )
         3           H   tau(   9) = (   0.0641045   0.1901859   0.1855705  )
     ===== FROZEN DENSITY EMBEDDING METHOD ======================
 

     celldm(1)=  22.676714  celldm(2)=   0.000000  celldm(3)=   0.000000
     celldm(4)=   0.000000  celldm(5)=   0.000000  celldm(6)=   0.000000

     crystal axes: (cart. coord. in units of alat)
               a(1) = (   0.600000   0.000000   0.000000 )  
               a(2) = (   0.000000   0.600000   0.000000 )  
               a(3) = (   0.000000   0.000000   0.600000 )  

     reciprocal axes: (cart. coord. in units 2 pi/alat)
               b(1) = (  1.666667  0.000000  0.000000 )  
               b(2) = (  0.000000  1.666667  0.000000 )  
               b(3) = (  0.000000  0.000000  1.666667 )  

     Large crystal axes: (cart. coord. in units of alat)
               a(1) = (   1.000000   0.000000   0.000000 )  
               a(2) = (   0.000000   1.000000   0.000000 )  
               a(3) = (   0.000000   0.000000   1.000000 )  

     Large reciprocal axes: (cart. coord. in units 2 pi/alat)
               b(1) = (  1.000000  0.000000  0.000000 )  
               b(2) = (  0.000000  1.000000  0.000000 )  
               b(3) = (  0.000000  0.000000  1.000000 )  


     PseudoPot. # 1 for O  read from file:
     ./O.pbe-rrkjus.UPF
     MD5 check sum: 390ba29e75625707450f3bd3f0eb6be9
     Pseudo is Ultrasoft, Zval =  6.0
     Generated by new atomic code, or converted to UPF format
     Using radial grid of 1269 points,  4 beta functions with: 
                l(1) =   0
                l(2) =   0
                l(3) =   1
                l(4) =   1
     Q(r) pseudized with 0 coefficients 


     PseudoPot. # 2 for H  read from file:
     ./H.pbe-rrkjus.UPF
     MD5 check sum: 7cc9d459525c9a0585f487a71c3c9563
     Pseudo is Ultrasoft, Zval =  1.0
     Generated by new atomic code, or converted to UPF format
     Using radial grid of 1061 points,  2 beta functions with: 
                l(1) =   0
                l(2) =   0
     Q(r) pseudized with 0 coefficients 


     atomic species   valence    mass     pseudopotential
        O              6.00    15.99900     O ( 1.00)
        H              1.00     1.00794     H ( 1.00)

     No symmetry found


                                    s                        frac. trans.

      isym =  1     identity                                     

 cryst.   s( 1) = (     1          0          0      )
                  (     0          1          0      )
                  (     0          0          1      )

 cart.    s( 1) = (  1.0000000  0.0000000  0.0000000 )
                  (  0.0000000  1.0000000  0.0000000 )
                  (  0.0000000  0.0000000  1.0000000 )


     point group C_1 (1)    
     there are  1 classes
     the character table:

       E    
A      1.00

     the symmetry operations in each class:
     E        1

   Cartesian axes

     site n.     atom                  positions (alat units)
         1           O   tau(   1) = (   0.3000000   0.3000000   0.2781729  )
         2           H   tau(   2) = (   0.3000000   0.3643023   0.3285514  )
         3           H   tau(   3) = (   0.3000000   0.2356977   0.3285514  )

   Crystallographic axes

     site n.     atom                  positions (cryst. coord.)
         1           O   tau(   1) = (  0.5000000  0.5000000  0.4636216  )
         2           H   tau(   2) = (  0.5000000  0.6071705  0.5475856  )
         3           H   tau(   3) = (  0.5000000  0.3928295  0.5475856  )

     number of k points=     1
                       cart. coord. in units 2pi/alat
        k(    1) = (   0.0000000   0.0000000   0.0000000), wk =   2.0000000

                       cryst. coord.
        k(    1) = (   0.0000000   0.0000000   0.0000000), wk =   2.0000000

     Dense  grid:   168285 G-vectors     FFT dimensions: (  72,  72,  72)

     Smooth grid:    42499 G-vectors     FFT dimensions: (  45,  45,  45)

     Large  grid:   778439 G-vectors     FFT dimensions: ( 120, 120, 120)

     Largest allocated arrays     est. size (Mb)     dimensions
        Kohn-Sham Wavefunctions         0.33 Mb     (    5377,    4)
        NL pseudopotentials             0.98 Mb     (    5377,   12)
        Each V/rho on FFT grid          5.70 Mb     (  373248)
        Each V/rho on Large FFT grid       8.79 Mb     (  576000)
        Each G-vector array             1.28 Mb     (  168285)
        G-vector shells                 0.01 Mb     (     980)
        Each G-vector array (Large)       1.98 Mb     (  259479)
        G-vector shells (Large)           0.02 Mb     (    2714)
     Largest temporary arrays     est. size (Mb)     dimensions
        Auxiliary wavefunctions         1.31 Mb     (    5377,   16)
        Each subspace H/S matrix        0.00 Mb     (      16,   16)
        Each <psi_i|beta_j> matrix      0.00 Mb     (      12,    4)
        Arrays for rho mixing          45.56 Mb     (  373248,    8)

     Initial potential from superposition of free atoms

     starting charge    7.80759, renormalised to    8.00000
  revAPBEK is a (semi)LOCAL NAKE
  revAPBEK is a (semi)LOCAL NAKE

     negative rho (up, down):  1.278E-05 0.000E+00
 E_XC[tot] =   -22.9714170054629     
     Starting wfc are    6 randomized atomic wfcs

     total cpu time spent up to now is        2.2 secs

     per-process dynamical memory:   233.9 Mb

     Self-consistent Calculation

     iteration #  1     ecut=    25.00 Ry     beta=0.70
     Davidson diagonalization with overlap
     ethr =  1.00E-02,  avg # of iterations =  2.0

     negative rho (up, down):  6.135E-06 0.000E+00
 E_XC[tot] =   -24.8731866747063     

     total cpu time spent up to now is        3.2 secs

     max. frag. est. scf acc.  =       0.68199576 Ry

     frag. estimated scf acc.  <       0.62905281 Ry
     total Hartree energy      =     115.97184165

     iteration #  2     ecut=    25.00 Ry     beta=0.70
     Davidson diagonalization with overlap
     ethr =  7.86E-03,  avg # of iterations =  2.0

     negative rho (up, down):  4.833E-06 0.000E+00
 E_XC[tot] =   -24.8625481710930     

     total cpu time spent up to now is        4.2 secs

     max. frag. est. scf acc.  =       0.10876527 Ry

     frag. estimated scf acc.  <       0.09048706 Ry
     total Hartree energy      =     116.85596385

     iteration #  3     ecut=    25.00 Ry     beta=0.70
     Davidson diagonalization with overlap
     ethr =  1.13E-03,  avg # of iterations =  2.0

     negative rho (up, down):  1.248E-04 0.000E+00
 E_XC[tot] =   -25.2329077749479     

     total cpu time spent up to now is        5.2 secs

     max. frag. est. scf acc.  =       0.02425899 Ry

     frag. estimated scf acc.  <       0.01593212 Ry
     total Hartree energy      =     119.67694003

     iteration #  4     ecut=    25.00 Ry     beta=0.70
     Davidson diagonalization with overlap
     ethr =  1.99E-04,  avg # of iterations =  2.0

     negative rho (up, down):  2.081E-05 0.000E+00
 E_XC[tot] =   -25.2108813907342     

     total cpu time spent up to now is        6.2 secs

     max. frag. est. scf acc.  =       0.00082863 Ry

     frag. estimated scf acc.  <       0.00069147 Ry
     total Hartree energy      =     119.60428606

     iteration #  5     ecut=    25.00 Ry     beta=0.70
     Davidson diagonalization with overlap
     ethr =  8.64E-06,  avg # of iterations =  2.0

     negative rho (up, down):  1.331E-04 0.000E+00
 E_XC[tot] =   -25.2340969925790     

     total cpu time spent up to now is        7.2 secs

     max. frag. est. scf acc.  =       0.00018967 Ry

     frag. estimated scf acc.  <       0.00007259 Ry
     total Hartree energy      =     119.81777134

     iteration #  6     ecut=    25.00 Ry     beta=0.70
     Davidson diagonalization with overlap
     ethr =  9.07E-07,  avg # of iterations =  2.0

     negative rho (up, down):  8.057E-05 0.000E+00
 E_XC[tot] =   -25.2160168920106     

     total cpu time spent up to now is        8.2 secs

     max. frag. est. scf acc.  =       0.00004473 Ry

     frag. estimated scf acc.  <       0.00001932 Ry
     total Hartree energy      =     119.73145520

     iteration #  7     ecut=    25.00 Ry     beta=0.70
     Davidson diagonalization with overlap
     ethr =  2.41E-07,  avg # of iterations =  2.0

     negative rho (up, down):  5.572E-05 0.000E+00
 E_XC[tot] =   -25.2208849652551     

     total cpu time spent up to now is        9.2 secs

     max. frag. est. scf acc.  =       0.00000348 Ry

     frag. estimated scf acc.  <       0.00000010 Ry
     total Hartree energy      =     119.75830141

     iteration #  8     ecut=    25.00 Ry     beta=0.70
     Davidson diagonalization with overlap
     ethr =  1.21E-09,  avg # of iterations =  3.0

     negative rho (up, down):  2.408E-05 0.000E+00
 E_XC[tot] =   -25.2196391152350     

     total cpu time spent up to now is       10.2 secs

     max. frag. est. scf acc.  =       0.00000069 Ry

     frag. estimated scf acc.  <       0.00000005 Ry
     total Hartree energy      =     119.75282079

     iteration #  9     ecut=    25.00 Ry     beta=0.70
     Davidson diagonalization with overlap
     ethr =  6.23E-10,  avg # of iterations =  2.0

     negative rho (up, down):  2.100E-05 0.000E+00
 E_XC[tot] =   -25.2194132222821     

     total cpu time spent up to now is       11.2 secs

     max. frag. est. scf acc.  =       0.00000005 Ry

     frag. estimated scf acc.  <       0.00000001 Ry
     total Hartree energy      =     119.75196946

     iteration # 10     ecut=    25.00 Ry     beta=0.70
     Davidson diagonalization with overlap
     ethr =  6.83E-11,  avg # of iterations =  1.0

     negative rho (up, down):  2.041E-05 0.000E+00
 E_XC[tot] =   -25.2191880486874     

     total cpu time spent up to now is       12.3 secs

     End of self-consistent calculation

          k = 0.0000 0.0000 0.0000 (  5377 PWs)   bands (ev):

   -23.7276 -11.3939  -7.8045  -5.8275

     occupation numbers 
     1.0000   1.0000   1.0000   1.0000

     highest occupied level (ev):    -5.8275

     max. frag. est. scf acc.  =       0.00000001 Ry

     frag. estimated scf acc.  <       0.00000000 Ry

     The total energy is the sum of the following terms:

     one-electron contribution =     -80.55047331 Ry
     hartree contribution      =      42.11851703 Ry
     xc contribution           =      -8.38479691 Ry
     ewald contribution        =      33.26336855 Ry
 
     FDE: sum of frag energies =     -36.27912809 Ry
     FDE: ewald double counting=     -66.52673710 Ry
     FDE: non additive kinetic =       0.04371148 Ry
     FDE: non additive E_XC    =      -0.02612910 Ry
     FDE: total energy         =    -102.78828282 Ry

     convergence has been achieved in  10 iterations

     Writing output data file water-trimer.save
 
     init_run     :      1.66s CPU      1.95s WALL (       1 calls)
     electrons    :      9.16s CPU     10.14s WALL (       1 calls)

     Called by init_run:
     wfcinit      :      0.02s CPU      0.11s WALL (       1 calls)
     potinit      :      0.64s CPU      0.74s WALL (       1 calls)

     Called by electrons:
     c_bands      :      0.40s CPU      0.41s WALL (      10 calls)
     sum_band     :      1.09s CPU      1.10s WALL (      10 calls)
     v_of_rho     :      6.23s CPU      7.14s WALL (      11 calls)
     v_h          :      0.21s CPU      0.28s WALL (      11 calls)
     v_xc         :      2.47s CPU      2.71s WALL (      12 calls)
     newd         :      1.39s CPU      1.40s WALL (      11 calls)
     mix_rho      :      0.22s CPU      0.23s WALL (      10 calls)

     Called by c_bands:
     init_us_2    :      0.02s CPU      0.02s WALL (      21 calls)
     cegterg      :      0.38s CPU      0.38s WALL (      10 calls)

     Called by sum_band:
     sum_band:bec :      0.00s CPU      0.00s WALL (      10 calls)
     addusdens    :      0.73s CPU      0.74s WALL (      10 calls)

     Called by *egterg:
     h_psi        :      0.37s CPU      0.37s WALL (      31 calls)
     s_psi        :      0.00s CPU      0.00s WALL (      31 calls)
     g_psi        :      0.00s CPU      0.00s WALL (      20 calls)
     cdiaghg      :      0.00s CPU      0.09s WALL (      30 calls)
     cegterg:over :      0.00s CPU      0.00s WALL (      20 calls)
     cegterg:upda :      0.01s CPU      0.01s WALL (      20 calls)
     cegterg:last :      0.00s CPU      0.00s WALL (      10 calls)

     Called by h_psi:
     h_psi:vloc   :      0.36s CPU      0.36s WALL (      31 calls)
     h_psi:vnl    :      0.01s CPU      0.01s WALL (      31 calls)
     add_vuspsi   :      0.00s CPU      0.00s WALL (      31 calls)

     General routines
     calbec       :      0.01s CPU      0.01s WALL (      41 calls)
     fft          :      1.20s CPU      1.24s WALL (     170 calls)
     ffts         :      0.04s CPU      0.04s WALL (      21 calls)
     fftw         :      0.36s CPU      0.36s WALL (     276 calls)
     interpolate  :      0.22s CPU      0.22s WALL (      21 calls)
     davcio       :      0.00s CPU      0.00s WALL (       1 calls)
 
     Parallel routines
     fft_scatter  :      1.14s CPU      1.40s WALL (     646 calls)
 
     PWSCF        :     10.93s CPU     12.37s WALL (       1 calls)
 
   This run was terminated on:  10:49: 8  20Nov2020            

=------------------------------------------------------------------------------=
   JOB DONE.
=------------------------------------------------------------------------------=
